%!PS-Adobe-3.0 EPSF-3.0
%%Creator: inkscape 0.46
%%Pages: 1
%%Orientation: Portrait
%%BoundingBox: 0 100 297 143
%%HiResBoundingBox: -1.350403e-08 100.67981 296.72026 142.48919
%%EndComments
%%BeginSetup
%%EndSetup
%%Page: 1 1
0 143 translate
0.8 -0.8 scale
0 0 0 setrgbcolor
[] 0 setdash
1 setlinewidth
0 setlinejoin
0 setlinecap
gsave [1 0 0 1 0 0] concat
gsave [1 0 0 1 -73.208947 -90.494998] concat
gsave
0.97254902 0.85882354 0.3764706 setrgbcolor
newpath
75.475097 142.54799 moveto
144.92475 142.54799 lineto
145.375 142.39799 lineto
145.67475 142.24799 lineto
146.125 141.94799 lineto
146.27487 141.64799 lineto
146.57525 141.19799 lineto
146.57525 101.89799 lineto
146.27487 101.59799 lineto
146.125 101.14799 lineto
145.67475 100.99799 lineto
145.375 100.69799 lineto
74.575197 100.69799 lineto
74.274897 100.99799 lineto
73.825197 101.14799 lineto
73.674797 101.59799 lineto
73.374997 101.89799 lineto
73.374997 141.19799 lineto
73.674797 141.64799 lineto
73.825197 141.94799 lineto
74.274897 142.24799 lineto
74.575197 142.39799 lineto
75.024897 142.54799 lineto
75.475097 142.54799 lineto
75.475097 142.54799 lineto
eofill
grestore
0 0 0 setrgbcolor
[] 0 setdash
0.33210003 setlinewidth
1 setlinejoin
1 setlinecap
newpath
75.475097 142.54799 moveto
144.92475 142.54799 lineto
145.375 142.39799 lineto
145.67475 142.24799 lineto
146.125 141.94799 lineto
146.27487 141.64799 lineto
146.57525 141.19799 lineto
146.57525 101.89799 lineto
146.27487 101.59799 lineto
146.125 101.14799 lineto
145.67475 100.99799 lineto
145.375 100.69799 lineto
74.575197 100.69799 lineto
74.274897 100.99799 lineto
73.825197 101.14799 lineto
73.674797 101.59799 lineto
73.374997 101.89799 lineto
73.374997 141.19799 lineto
73.674797 141.64799 lineto
73.825197 141.94799 lineto
74.274897 142.24799 lineto
74.575197 142.39799 lineto
75.024897 142.54799 lineto
75.475097 142.54799 lineto
75.475097 142.54799 lineto
stroke
gsave
1 1 1 setrgbcolor
newpath
139.375 121.54799 moveto
139.375 120.79799 lineto
139.22512 120.19799 lineto
138.92475 119.44799 lineto
138.77487 118.84799 lineto
138.47512 118.24799 lineto
138.02487 117.49799 lineto
137.57525 116.89799 lineto
136.97512 116.14799 lineto
136.375 115.69799 lineto
135.77487 115.09799 lineto
135.02487 114.34799 lineto
134.27487 113.89799 lineto
133.375 113.44799 lineto
132.47512 112.84799 lineto
131.57525 112.24799 lineto
130.67475 111.79799 lineto
129.625 111.34799 lineto
128.72512 110.89799 lineto
127.52487 110.59799 lineto
126.32525 110.14799 lineto
125.27487 109.84799 lineto
123.92475 109.54799 lineto
122.72512 109.24799 lineto
121.375 108.79799 lineto
120.02487 108.64799 lineto
118.67475 108.34799 lineto
117.17475 108.34799 lineto
115.97512 108.04799 lineto
114.47512 107.89799 lineto
105.47513 107.89799 lineto
103.97513 108.04799 lineto
102.625 108.34799 lineto
101.27488 108.34799 lineto
99.774877 108.64799 lineto
98.424747 108.79799 lineto
97.225127 109.24799 lineto
95.874997 109.54799 lineto
94.674747 109.84799 lineto
93.475127 110.14799 lineto
92.424747 110.59799 lineto
91.225127 110.89799 lineto
90.174747 111.34799 lineto
89.124997 111.79799 lineto
88.225127 112.24799 lineto
87.325247 112.84799 lineto
86.424747 113.44799 lineto
85.674747 113.89799 lineto
84.774877 114.34799 lineto
84.174747 115.09799 lineto
83.575247 115.69799 lineto
82.975097 116.14799 lineto
82.374997 116.89799 lineto
81.924797 117.49799 lineto
81.475097 118.24799 lineto
81.174797 118.84799 lineto
81.024897 119.44799 lineto
80.725097 120.19799 lineto
80.575197 120.79799 lineto
80.575197 122.29799 lineto
80.725097 123.04799 lineto
81.024897 123.79799 lineto
81.174797 124.39799 lineto
81.475097 124.99799 lineto
81.924797 125.74799 lineto
82.374997 126.34799 lineto
82.975097 126.94799 lineto
83.575247 127.54799 lineto
84.174747 128.14799 lineto
84.774877 128.74799 lineto
85.674747 129.34799 lineto
86.424747 129.79799 lineto
87.325247 130.39799 lineto
88.225127 130.84799 lineto
89.124997 131.44799 lineto
90.174747 131.89799 lineto
91.225127 132.34799 lineto
92.424747 132.64799 lineto
93.475127 133.09799 lineto
94.674747 133.39799 lineto
95.874997 133.69799 lineto
97.225127 133.99799 lineto
98.424747 134.29799 lineto
99.774877 134.44799 lineto
101.27488 134.74799 lineto
102.625 134.89799 lineto
103.97513 135.04799 lineto
105.47513 135.34799 lineto
114.47512 135.34799 lineto
115.97512 135.04799 lineto
117.17475 134.89799 lineto
118.67475 134.74799 lineto
120.02487 134.44799 lineto
121.375 134.29799 lineto
122.72512 133.99799 lineto
123.92475 133.69799 lineto
125.27487 133.39799 lineto
126.32525 133.09799 lineto
127.52487 132.64799 lineto
128.72512 132.34799 lineto
129.625 131.89799 lineto
130.67475 131.44799 lineto
131.57525 130.84799 lineto
132.47512 130.39799 lineto
133.375 129.79799 lineto
134.27487 129.34799 lineto
135.02487 128.74799 lineto
135.77487 128.14799 lineto
136.375 127.54799 lineto
136.97512 126.94799 lineto
137.57525 126.34799 lineto
138.02487 125.74799 lineto
138.47512 124.99799 lineto
138.77487 124.39799 lineto
138.92475 123.79799 lineto
139.22512 123.04799 lineto
139.375 122.29799 lineto
139.375 121.54799 lineto
eofill
grestore
0 0 0 setrgbcolor
[] 0 setdash
0.33210003 setlinewidth
1 setlinejoin
1 setlinecap
newpath
139.375 121.54799 moveto
139.375 120.79799 lineto
139.22512 120.19799 lineto
138.92475 119.44799 lineto
138.77487 118.84799 lineto
138.47512 118.24799 lineto
138.02487 117.49799 lineto
137.57525 116.89799 lineto
136.97512 116.14799 lineto
136.375 115.69799 lineto
135.77487 115.09799 lineto
135.02487 114.34799 lineto
134.27487 113.89799 lineto
133.375 113.44799 lineto
132.47512 112.84799 lineto
131.57525 112.24799 lineto
130.67475 111.79799 lineto
129.625 111.34799 lineto
128.72512 110.89799 lineto
127.52487 110.59799 lineto
126.32525 110.14799 lineto
125.27487 109.84799 lineto
123.92475 109.54799 lineto
122.72512 109.24799 lineto
121.375 108.79799 lineto
120.02487 108.64799 lineto
118.67475 108.34799 lineto
117.17475 108.34799 lineto
115.97512 108.04799 lineto
114.47512 107.89799 lineto
105.47513 107.89799 lineto
103.97513 108.04799 lineto
102.625 108.34799 lineto
101.27488 108.34799 lineto
99.774877 108.64799 lineto
98.424747 108.79799 lineto
97.225127 109.24799 lineto
95.874997 109.54799 lineto
94.674747 109.84799 lineto
93.475127 110.14799 lineto
92.424747 110.59799 lineto
91.225127 110.89799 lineto
90.174747 111.34799 lineto
89.124997 111.79799 lineto
88.225127 112.24799 lineto
87.325247 112.84799 lineto
86.424747 113.44799 lineto
85.674747 113.89799 lineto
84.774877 114.34799 lineto
84.174747 115.09799 lineto
83.575247 115.69799 lineto
82.975097 116.14799 lineto
82.374997 116.89799 lineto
81.924797 117.49799 lineto
81.475097 118.24799 lineto
81.174797 118.84799 lineto
81.024897 119.44799 lineto
80.725097 120.19799 lineto
80.575197 120.79799 lineto
80.575197 122.29799 lineto
80.725097 123.04799 lineto
81.024897 123.79799 lineto
81.174797 124.39799 lineto
81.475097 124.99799 lineto
81.924797 125.74799 lineto
82.374997 126.34799 lineto
82.975097 126.94799 lineto
83.575247 127.54799 lineto
84.174747 128.14799 lineto
84.774877 128.74799 lineto
85.674747 129.34799 lineto
86.424747 129.79799 lineto
87.325247 130.39799 lineto
88.225127 130.84799 lineto
89.124997 131.44799 lineto
90.174747 131.89799 lineto
91.225127 132.34799 lineto
92.424747 132.64799 lineto
93.475127 133.09799 lineto
94.674747 133.39799 lineto
95.874997 133.69799 lineto
97.225127 133.99799 lineto
98.424747 134.29799 lineto
99.774877 134.44799 lineto
101.27488 134.74799 lineto
102.625 134.89799 lineto
103.97513 135.04799 lineto
105.47513 135.34799 lineto
114.47512 135.34799 lineto
115.97512 135.04799 lineto
117.17475 134.89799 lineto
118.67475 134.74799 lineto
120.02487 134.44799 lineto
121.375 134.29799 lineto
122.72512 133.99799 lineto
123.92475 133.69799 lineto
125.27487 133.39799 lineto
126.32525 133.09799 lineto
127.52487 132.64799 lineto
128.72512 132.34799 lineto
129.625 131.89799 lineto
130.67475 131.44799 lineto
131.57525 130.84799 lineto
132.47512 130.39799 lineto
133.375 129.79799 lineto
134.27487 129.34799 lineto
135.02487 128.74799 lineto
135.77487 128.14799 lineto
136.375 127.54799 lineto
136.97512 126.94799 lineto
137.57525 126.34799 lineto
138.02487 125.74799 lineto
138.47512 124.99799 lineto
138.77487 124.39799 lineto
138.92475 123.79799 lineto
139.22512 123.04799 lineto
139.375 122.29799 lineto
139.375 121.54799 lineto
stroke
gsave [1.25 0 0 -1.25 70.624997 271.29424] concat
gsave [1 0 0 -1 26.0801 117.637] concat
gsave
0 0 0 setrgbcolor
newpath
1.8042637 -3.7221817 moveto
1.1933712 -3.7221817 lineto
1.1933712 -4.7450714 lineto
0.60378902 -4.7450714 lineto
0.60378902 -3.7221817 lineto
0.099447603 -3.7221817 lineto
0.099447603 -3.2391505 lineto
0.60378902 -3.2391505 lineto
0.60378902 -0.42620401 lineto
0.60378902 -0.049724178 0.85951189 0.16337821 1.3212324 0.16337821 curveto
1.4633003 0.16337821 1.6053687 0.14917137 1.8042637 0.1136544 curveto
1.8042637 -0.38358361 lineto
1.7261263 -0.36227343 1.6337819 -0.35517001 1.5201276 -0.35517001 curveto
1.2644055 -0.35517001 1.1933712 -0.42620428 1.1933712 -0.68902982 curveto
1.1933712 -3.2391505 lineto
1.8042637 -3.2391505 lineto
1.8042637 -3.7221817 lineto
fill
grestore
gsave
0 0 0 setrgbcolor
newpath
2.9855129 -3.7221817 moveto
2.3959306 -3.7221817 lineto
2.3959306 0 lineto
2.9855129 0 lineto
2.9855129 -3.7221817 lineto
2.9855129 -5.1783788 moveto
2.3888272 -5.1783788 lineto
2.3888272 -4.4325217 lineto
2.9855129 -4.4325217 lineto
2.9855129 -5.1783788 lineto
fill
grestore
gsave
0 0 0 setrgbcolor
newpath
6.9457045 -2.4719833 moveto
6.9172909 -2.8342563 6.8391534 -3.0686691 6.6970855 -3.2746675 curveto
6.4413634 -3.6227338 5.9938484 -3.8287327 5.4753007 -3.8287327 curveto
4.4737222 -3.8287327 3.8202084 -3.0331507 3.8202084 -1.7971603 curveto
3.8202084 -0.59668682 4.4595154 0.16337821 5.4681973 0.16337821 curveto
6.3561214 0.16337821 6.917291 -0.36937772 6.9883249 -1.278612 curveto
6.3916393 -1.278612 lineto
6.2921918 -0.68192702 5.986745 -0.38358361 5.4824041 -0.38358361 curveto
4.8288919 -0.38358361 4.4382042 -0.91633951 4.4382042 -1.7971603 curveto
4.4382042 -2.7277048 4.8217885 -3.2817709 5.4681973 -3.2817709 curveto
5.9654348 -3.2817709 6.277985 -2.990531 6.3490189 -2.4719833 curveto
6.9457045 -2.4719833 lineto
fill
grestore
gsave
0 0 0 setrgbcolor
newpath
8.0815813 -5.1783788 moveto
7.491999 -5.1783788 lineto
7.491999 0 lineto
8.0815813 0 lineto
8.0815813 -1.4490936 lineto
8.6569567 -2.0173657 lineto
9.9142585 0 lineto
10.645909 0 lineto
9.1257811 -2.4364663 lineto
10.4186 -3.7221817 lineto
9.6585361 -3.7221817 lineto
8.0815813 -2.1452269 lineto
8.0815813 -5.1783788 lineto
fill
grestore
grestore
grestore
0 0 0 setrgbcolor
[] 0 setdash
0.33210003 setlinewidth
1 setlinejoin
1 setlinecap
newpath
76.225097 104.89799 moveto
79.674797 110.74799 lineto
81.475097 105.64799 lineto
84.475127 110.59799 lineto
stroke
gsave
0 0 0 setrgbcolor
newpath
86.575247 114.64799 moveto
81.024897 110.89799 lineto
81.774897 110.74799 lineto
82.524897 110.59799 lineto
83.274877 110.29799 lineto
84.024877 109.99799 lineto
84.624997 109.54799 lineto
85.225127 109.09799 lineto
85.674747 108.49799 lineto
86.274877 107.89799 lineto
86.274877 107.89799 lineto
86.575247 114.64799 lineto
86.575247 114.64799 lineto
eofill
grestore
gsave [1.25 0 0 -1.25 70.624997 271.29424] concat
gsave [1 0 0 -1 3.88008 137.797] concat
gsave
0 0 0 setrgbcolor
newpath
2.5146037 -4.5958999 moveto
4.2123163 -4.5958999 lineto
4.2123163 -5.1783788 lineto
0.1491714 -5.1783788 lineto
0.1491714 -4.5958999 lineto
1.8539875 -4.5958999 lineto
1.8539875 0 lineto
2.5146037 0 lineto
2.5146037 -4.5958999 lineto
fill
grestore
gsave
0 0 0 setrgbcolor
newpath
5.4080184 -3.7221817 moveto
4.8184361 -3.7221817 lineto
4.8184361 0 lineto
5.4080184 0 lineto
5.4080184 -3.7221817 lineto
5.4080184 -5.1783788 moveto
4.8113327 -5.1783788 lineto
4.8113327 -4.4325217 lineto
5.4080184 -4.4325217 lineto
5.4080184 -5.1783788 lineto
fill
grestore
gsave
0 0 0 setrgbcolor
newpath
6.4213627 -3.7221817 moveto
6.4213627 0 lineto
7.0180484 0 lineto
7.0180484 -2.3370187 lineto
7.0180484 -2.8768766 7.4087358 -3.3101845 7.8917666 -3.3101845 curveto
8.332177 -3.3101845 8.5807964 -3.0402548 8.5807964 -2.5643275 curveto
8.5807964 0 lineto
9.177482 0 lineto
9.177482 -2.3370187 lineto
9.177482 -2.8768766 9.5681695 -3.3101845 10.0512 -3.3101845 curveto
10.484507 -3.3101845 10.74023 -3.0331514 10.74023 -2.5643275 curveto
10.74023 0 lineto
11.336916 0 lineto
11.336916 -2.7916363 lineto
11.336916 -3.4593552 10.953331 -3.8287327 10.257199 -3.8287327 curveto
9.7599613 -3.8287327 9.4616177 -3.6795609 9.1135514 -3.2604607 curveto
8.8933462 -3.6582507 8.5950027 -3.8287327 8.111972 -3.8287327 curveto
7.6147345 -3.8287327 7.2879772 -3.6440439 6.9683246 -3.1965301 curveto
6.9683246 -3.7221817 lineto
6.4213627 -3.7221817 lineto
fill
grestore
gsave
0 0 0 setrgbcolor
newpath
15.492294 -1.6621957 moveto
15.492294 -2.2304671 15.449673 -2.5714312 15.343122 -2.8484635 curveto
15.101607 -3.4593553 14.533334 -3.8287327 13.837201 -3.8287327 curveto
12.800106 -3.8287327 12.132385 -3.0331507 12.132385 -1.8113671 curveto
12.132385 -0.58958344 12.778796 0.16337821 13.822995 0.16337821 curveto
14.675402 0.16337821 15.264985 -0.31965382 15.414156 -1.1294406 curveto
14.817471 -1.1294406 lineto
14.654093 -0.63930651 14.320232 -0.38358361 13.844305 -0.38358361 curveto
13.467825 -0.38358361 13.148171 -0.55406553 12.949276 -0.86661483 curveto
12.807209 -1.0797166 12.757485 -1.2928192 12.750381 -1.6621957 curveto
15.492294 -1.6621957 lineto
12.764588 -2.1452269 moveto
12.814312 -2.834256 13.233413 -3.2817709 13.830098 -3.2817709 curveto
14.412576 -3.2817709 14.860091 -2.7987391 14.860091 -2.1878473 curveto
14.860091 -2.1736405 14.860091 -2.1594337 14.852988 -2.1452269 curveto
12.764588 -2.1452269 lineto
fill
grestore
gsave
0 0 0 setrgbcolor
newpath
16.292426 -3.7221817 moveto
16.292426 0 lineto
16.889111 0 lineto
16.889111 -1.9321249 lineto
16.889111 -2.4648793 17.024076 -2.8129467 17.308212 -3.0189451 curveto
17.4929 -3.1539096 17.670486 -3.1965301 18.082482 -3.2036335 curveto
18.082482 -3.8074225 lineto
17.983035 -3.8216293 17.933311 -3.8287327 17.855174 -3.8287327 curveto
17.47159 -3.8287327 17.18035 -3.6014234 16.839387 -3.0473587 curveto
16.839387 -3.7221817 lineto
16.292426 -3.7221817 lineto
fill
grestore
grestore
grestore
gsave
0.50196081 0.50196081 0.50196081 setrgbcolor
newpath
150.7834 121.03048 moveto
150.7834 120.27877 lineto
150.64883 119.97833 lineto
150.51425 119.52707 lineto
150.37968 119.22663 lineto
150.10997 118.9257 lineto
149.9754 118.62514 lineto
149.70626 118.32471 lineto
149.43655 118.17399 lineto
149.1674 117.87344 lineto
148.8977 117.72322 lineto
148.49398 117.42228 lineto
148.0897 117.42228 lineto
147.82056 117.27195 lineto
146.20401 117.27195 lineto
145.93486 117.42228 lineto
145.53058 117.42228 lineto
145.26144 117.72322 lineto
144.99229 117.87344 lineto
144.72258 118.17399 lineto
144.31887 118.32471 lineto
144.18374 118.62514 lineto
143.91459 118.9257 lineto
143.78001 119.22663 lineto
143.51031 119.52707 lineto
143.51031 119.97833 lineto
143.37573 120.27877 lineto
143.24117 120.57983 lineto
143.24117 121.33153 lineto
143.37573 121.78219 lineto
143.51031 122.08324 lineto
143.51031 122.53389 lineto
143.78001 122.83494 lineto
143.91459 123.13538 lineto
144.18374 123.43593 lineto
144.31887 123.73686 lineto
144.72258 123.88708 lineto
144.99229 124.18763 lineto
145.26144 124.33835 lineto
145.53058 124.48856 lineto
145.93486 124.63879 lineto
146.20401 124.63879 lineto
146.60829 124.78901 lineto
147.41628 124.78901 lineto
147.82056 124.63879 lineto
148.0897 124.63879 lineto
148.49398 124.48856 lineto
148.8977 124.33835 lineto
149.1674 124.18763 lineto
149.43655 123.88708 lineto
149.70626 123.73686 lineto
149.9754 123.43593 lineto
150.10997 123.13538 lineto
150.37968 122.83494 lineto
150.51425 122.53389 lineto
150.64883 122.08324 lineto
150.7834 121.78219 lineto
150.7834 121.03048 lineto
eofill
grestore
0 0 0 setrgbcolor
[] 0 setdash
0.31504723 setlinewidth
1 setlinejoin
1 setlinecap
newpath
150.7834 121.03048 moveto
150.7834 120.27877 lineto
150.64883 119.97833 lineto
150.51425 119.52707 lineto
150.37968 119.22663 lineto
150.10997 118.9257 lineto
149.9754 118.62514 lineto
149.70626 118.32471 lineto
149.43655 118.17399 lineto
149.1674 117.87344 lineto
148.8977 117.72322 lineto
148.49398 117.42228 lineto
148.0897 117.42228 lineto
147.82056 117.27195 lineto
146.20401 117.27195 lineto
145.93486 117.42228 lineto
145.53058 117.42228 lineto
145.26144 117.72322 lineto
144.99229 117.87344 lineto
144.72258 118.17399 lineto
144.31887 118.32471 lineto
144.18374 118.62514 lineto
143.91459 118.9257 lineto
143.78001 119.22663 lineto
143.51031 119.52707 lineto
143.51031 119.97833 lineto
143.37573 120.27877 lineto
143.24117 120.57983 lineto
143.24117 121.33153 lineto
143.37573 121.78219 lineto
143.51031 122.08324 lineto
143.51031 122.53389 lineto
143.78001 122.83494 lineto
143.91459 123.13538 lineto
144.18374 123.43593 lineto
144.31887 123.73686 lineto
144.72258 123.88708 lineto
144.99229 124.18763 lineto
145.26144 124.33835 lineto
145.53058 124.48856 lineto
145.93486 124.63879 lineto
146.20401 124.63879 lineto
146.60829 124.78901 lineto
147.41628 124.78901 lineto
147.82056 124.63879 lineto
148.0897 124.63879 lineto
148.49398 124.48856 lineto
148.8977 124.33835 lineto
149.1674 124.18763 lineto
149.43655 123.88708 lineto
149.70626 123.73686 lineto
149.9754 123.43593 lineto
150.10997 123.13538 lineto
150.37968 122.83494 lineto
150.51425 122.53389 lineto
150.64883 122.08324 lineto
150.7834 121.78219 lineto
150.7834 121.03048 lineto
stroke
0 0 0 setrgbcolor
[] 0 setdash
0.31504723 setlinewidth
1 setlinejoin
1 setlinecap
newpath
143.24117 121.03048 moveto
139.45932 121.04513 lineto
stroke
gsave [1 0 0 1 -37.317126 -0.042679606] concat
gsave
0.97254902 0.85882354 0.3764706 setrgbcolor
newpath
299.51269 142.54799 moveto
479.73771 142.54799 lineto
480.15297 142.39799 lineto
480.42981 142.24799 lineto
480.70666 141.94799 lineto
480.9835 141.64799 lineto
481.12192 141.19799 lineto
481.26034 140.89799 lineto
481.26034 102.34799 lineto
481.12192 101.89799 lineto
480.9835 101.59799 lineto
480.70666 101.14799 lineto
480.42981 100.99799 lineto
480.15297 100.69799 lineto
298.82058 100.69799 lineto
298.40566 100.99799 lineto
298.12847 101.14799 lineto
297.85186 101.59799 lineto
297.85186 101.89799 lineto
297.57525 102.34799 lineto
297.57525 140.89799 lineto
297.85186 141.19799 lineto
297.85186 141.64799 lineto
298.12847 141.94799 lineto
298.40566 142.24799 lineto
298.82058 142.39799 lineto
299.09777 142.54799 lineto
299.51269 142.54799 lineto
299.51269 142.54799 lineto
eofill
grestore
0 0 0 setrgbcolor
[] 0 setdash
0.31908616 setlinewidth
1 setlinejoin
1 setlinecap
newpath
299.50632 142.5545 moveto
479.7441 142.5545 lineto
480.1594 142.40445 lineto
480.43626 142.2544 lineto
480.71312 141.95431 lineto
480.98999 141.65422 lineto
481.12842 141.20408 lineto
481.26685 140.90398 lineto
481.26685 135.57848 lineto
481.26685 102.342 lineto
481.12842 101.89186 lineto
480.98999 101.59176 lineto
480.71312 101.14162 lineto
480.43626 100.99158 lineto
480.1594 100.69148 lineto
298.81416 100.69148 lineto
298.39921 100.99158 lineto
298.12201 101.14162 lineto
297.84537 101.59176 lineto
297.84537 101.89186 lineto
297.56874 102.342 lineto
297.56874 140.90398 lineto
297.84537 141.20408 lineto
297.84537 141.65422 lineto
298.12201 141.95431 lineto
298.39921 142.2544 lineto
298.81416 142.40445 lineto
299.09137 142.5545 lineto
299.50632 142.5545 lineto
299.50632 142.5545 lineto
stroke
gsave
1 1 1 setrgbcolor
newpath
478.825 121.54799 moveto
478.825 120.94799 lineto
478.675 120.19799 lineto
478.375 119.44799 lineto
478.225 118.84799 lineto
477.925 118.24799 lineto
477.625 117.49799 lineto
477.025 116.89799 lineto
476.575 116.29799 lineto
475.825 115.69799 lineto
475.375 115.09799 lineto
474.625 114.34799 lineto
473.725 113.89799 lineto
472.975 113.44799 lineto
472.075 112.84799 lineto
471.175 112.24799 lineto
470.275 111.79799 lineto
469.225 111.34799 lineto
468.175 110.89799 lineto
466.975 110.59799 lineto
465.925 110.14799 lineto
464.725 109.84799 lineto
463.525 109.54799 lineto
462.325 109.24799 lineto
460.975 108.79799 lineto
459.625 108.64799 lineto
458.275 108.34799 lineto
456.775 108.34799 lineto
455.425 108.04799 lineto
453.925 107.89799 lineto
445.075 107.89799 lineto
443.575 108.04799 lineto
442.225 108.34799 lineto
440.725 108.34799 lineto
439.375 108.64799 lineto
438.025 108.79799 lineto
436.675 109.24799 lineto
435.475 109.54799 lineto
434.275 109.84799 lineto
433.075 110.14799 lineto
432.025 110.59799 lineto
430.825 110.89799 lineto
429.775 111.34799 lineto
428.725 111.79799 lineto
427.825 112.24799 lineto
426.925 112.84799 lineto
426.025 113.44799 lineto
425.275 113.89799 lineto
424.375 114.34799 lineto
423.625 115.09799 lineto
423.025 115.69799 lineto
422.425 116.29799 lineto
421.825 116.89799 lineto
421.375 117.49799 lineto
421.075 118.24799 lineto
420.775 118.84799 lineto
420.475 119.44799 lineto
420.325 120.19799 lineto
420.175 120.79799 lineto
420.175 122.29799 lineto
420.325 123.04799 lineto
420.475 123.79799 lineto
420.775 124.39799 lineto
421.075 124.99799 lineto
421.375 125.74799 lineto
421.825 126.34799 lineto
422.425 126.94799 lineto
423.025 127.54799 lineto
423.625 128.14799 lineto
424.375 128.74799 lineto
425.275 129.34799 lineto
426.025 129.79799 lineto
426.925 130.39799 lineto
427.825 130.84799 lineto
428.725 131.44799 lineto
429.775 131.89799 lineto
430.825 132.34799 lineto
432.025 132.64799 lineto
433.075 133.09799 lineto
434.275 133.39799 lineto
435.475 133.69799 lineto
436.675 133.99799 lineto
438.025 134.29799 lineto
439.375 134.44799 lineto
440.725 134.74799 lineto
442.225 134.89799 lineto
443.575 135.04799 lineto
445.075 135.34799 lineto
453.925 135.34799 lineto
455.425 135.04799 lineto
456.775 134.89799 lineto
458.275 134.74799 lineto
459.625 134.44799 lineto
460.975 134.29799 lineto
462.325 133.99799 lineto
463.525 133.69799 lineto
464.725 133.39799 lineto
465.925 133.09799 lineto
466.975 132.64799 lineto
468.175 132.34799 lineto
469.225 131.89799 lineto
470.275 131.44799 lineto
471.175 130.84799 lineto
472.075 130.39799 lineto
472.975 129.79799 lineto
473.725 129.34799 lineto
474.625 128.74799 lineto
475.375 128.14799 lineto
475.825 127.54799 lineto
476.575 126.94799 lineto
477.025 126.34799 lineto
477.625 125.74799 lineto
477.925 124.99799 lineto
478.225 124.39799 lineto
478.375 123.79799 lineto
478.675 123.04799 lineto
478.825 122.29799 lineto
478.825 121.54799 lineto
eofill
grestore
0 0 0 setrgbcolor
[] 0 setdash
0.33210003 setlinewidth
1 setlinejoin
1 setlinecap
newpath
478.825 121.54799 moveto
478.825 120.94799 lineto
478.675 120.19799 lineto
478.375 119.44799 lineto
478.225 118.84799 lineto
477.925 118.24799 lineto
477.625 117.49799 lineto
477.025 116.89799 lineto
476.575 116.29799 lineto
475.825 115.69799 lineto
475.375 115.09799 lineto
474.625 114.34799 lineto
473.725 113.89799 lineto
472.975 113.44799 lineto
472.075 112.84799 lineto
471.175 112.24799 lineto
470.275 111.79799 lineto
469.225 111.34799 lineto
468.175 110.89799 lineto
466.975 110.59799 lineto
465.925 110.14799 lineto
464.725 109.84799 lineto
463.525 109.54799 lineto
462.325 109.24799 lineto
460.975 108.79799 lineto
459.625 108.64799 lineto
458.275 108.34799 lineto
456.775 108.34799 lineto
455.425 108.04799 lineto
453.925 107.89799 lineto
445.075 107.89799 lineto
443.575 108.04799 lineto
442.225 108.34799 lineto
440.725 108.34799 lineto
439.375 108.64799 lineto
438.025 108.79799 lineto
436.675 109.24799 lineto
435.475 109.54799 lineto
434.275 109.84799 lineto
433.075 110.14799 lineto
432.025 110.59799 lineto
430.825 110.89799 lineto
429.775 111.34799 lineto
428.725 111.79799 lineto
427.825 112.24799 lineto
426.925 112.84799 lineto
426.025 113.44799 lineto
425.275 113.89799 lineto
424.375 114.34799 lineto
423.625 115.09799 lineto
423.025 115.69799 lineto
422.425 116.29799 lineto
421.825 116.89799 lineto
421.375 117.49799 lineto
421.075 118.24799 lineto
420.775 118.84799 lineto
420.475 119.44799 lineto
420.325 120.19799 lineto
420.175 120.79799 lineto
420.175 122.29799 lineto
420.325 123.04799 lineto
420.475 123.79799 lineto
420.775 124.39799 lineto
421.075 124.99799 lineto
421.375 125.74799 lineto
421.825 126.34799 lineto
422.425 126.94799 lineto
423.025 127.54799 lineto
423.625 128.14799 lineto
424.375 128.74799 lineto
425.275 129.34799 lineto
426.025 129.79799 lineto
426.925 130.39799 lineto
427.825 130.84799 lineto
428.725 131.44799 lineto
429.775 131.89799 lineto
430.825 132.34799 lineto
432.025 132.64799 lineto
433.075 133.09799 lineto
434.275 133.39799 lineto
435.475 133.69799 lineto
436.675 133.99799 lineto
438.025 134.29799 lineto
439.375 134.44799 lineto
440.725 134.74799 lineto
442.225 134.89799 lineto
443.575 135.04799 lineto
445.075 135.34799 lineto
453.925 135.34799 lineto
455.425 135.04799 lineto
456.775 134.89799 lineto
458.275 134.74799 lineto
459.625 134.44799 lineto
460.975 134.29799 lineto
462.325 133.99799 lineto
463.525 133.69799 lineto
464.725 133.39799 lineto
465.925 133.09799 lineto
466.975 132.64799 lineto
468.175 132.34799 lineto
469.225 131.89799 lineto
470.275 131.44799 lineto
471.175 130.84799 lineto
472.075 130.39799 lineto
472.975 129.79799 lineto
473.725 129.34799 lineto
474.625 128.74799 lineto
475.375 128.14799 lineto
475.825 127.54799 lineto
476.575 126.94799 lineto
477.025 126.34799 lineto
477.625 125.74799 lineto
477.925 124.99799 lineto
478.225 124.39799 lineto
478.375 123.79799 lineto
478.675 123.04799 lineto
478.825 122.29799 lineto
478.825 121.54799 lineto
stroke
gsave [1.25 0 0 -1.25 190.625 271.29424] concat
gsave [1 0 0 -1 204.16 117.637] concat
gsave
0 0 0 setrgbcolor
newpath
0.49013462 -3.7221817 moveto
0.49013462 0 lineto
1.0868202 0 lineto
1.0868202 -1.9321249 lineto
1.0868202 -2.4648793 1.2217851 -2.8129467 1.5059208 -3.0189451 curveto
1.6906091 -3.1539096 1.8681947 -3.1965301 2.2801915 -3.2036335 curveto
2.2801915 -3.8074225 lineto
2.180744 -3.8216293 2.13102 -3.8287327 2.0528827 -3.8287327 curveto
1.6692994 -3.8287327 1.3780593 -3.6014234 1.0370964 -3.0473587 curveto
1.0370964 -3.7221817 lineto
0.49013462 -3.7221817 lineto
fill
grestore
gsave
0 0 0 setrgbcolor
newpath
4.4741953 -1.9250215 moveto
5.7243938 -3.7221817 lineto
5.0566742 -3.7221817 lineto
4.1616457 -2.3725357 lineto
3.2666173 -3.7221817 lineto
2.5917943 -3.7221817 lineto
3.8348893 -1.8966079 lineto
2.5207603 0 lineto
3.1955833 0 lineto
4.1403355 -1.4277834 lineto
5.070881 0 lineto
5.7599108 0 lineto
4.4741953 -1.9250215 lineto
fill
grestore
grestore
grestore
gsave
1 1 1 setrgbcolor
newpath
305.175 134.14799 moveto
353.175 134.14799 lineto
353.625 133.99799 lineto
353.625 133.99799 lineto
353.925 133.84799 lineto
354.075 133.54799 lineto
354.225 133.39799 lineto
354.225 109.69799 lineto
354.075 109.54799 lineto
353.925 109.39799 lineto
353.625 109.24799 lineto
353.625 109.09799 lineto
353.175 109.09799 lineto
353.025 108.94799 lineto
305.175 108.94799 lineto
305.025 109.09799 lineto
304.725 109.09799 lineto
304.575 109.24799 lineto
304.275 109.39799 lineto
304.275 109.54799 lineto
304.125 109.69799 lineto
303.975 109.99799 lineto
303.975 133.09799 lineto
304.125 133.39799 lineto
304.275 133.54799 lineto
304.275 133.84799 lineto
304.575 133.99799 lineto
304.725 133.99799 lineto
305.025 134.14799 lineto
305.175 134.14799 lineto
305.175 134.14799 lineto
eofill
grestore
0 0 0 setrgbcolor
[] 0 setdash
0.33210003 setlinewidth
1 setlinejoin
1 setlinecap
newpath
305.175 134.14799 moveto
353.175 134.14799 lineto
353.625 133.99799 lineto
353.625 133.99799 lineto
353.925 133.84799 lineto
354.075 133.54799 lineto
354.225 133.39799 lineto
354.225 109.69799 lineto
354.075 109.54799 lineto
353.925 109.39799 lineto
353.625 109.24799 lineto
353.625 109.09799 lineto
353.175 109.09799 lineto
353.025 108.94799 lineto
305.175 108.94799 lineto
305.025 109.09799 lineto
304.725 109.09799 lineto
304.575 109.24799 lineto
304.275 109.39799 lineto
304.275 109.54799 lineto
304.125 109.69799 lineto
303.975 109.99799 lineto
303.975 133.09799 lineto
304.125 133.39799 lineto
304.275 133.54799 lineto
304.275 133.84799 lineto
304.575 133.99799 lineto
304.725 133.99799 lineto
305.025 134.14799 lineto
305.175 134.14799 lineto
305.175 134.14799 lineto
stroke
gsave [1.25 0 0 -1.25 212.03039 270.4494] concat
gsave [1 0 0 -1 0 0] concat
gsave
0 0 0 setrgbcolor
newpath
90.042066 -124.52208 moveto
90.034962 -125.25373 89.55193 -125.66573 88.69242 -125.66573 curveto
87.825806 -125.66573 87.264636 -125.21822 87.264636 -124.52919 curveto
87.264636 -123.94671 87.56298 -123.66968 88.443801 -123.45657 curveto
88.997866 -123.32161 lineto
89.409863 -123.22216 89.573241 -123.07299 89.573241 -122.80306 curveto
89.573241 -122.45499 89.225174 -122.22058 88.706626 -122.22058 curveto
88.386974 -122.22058 88.117044 -122.31293 87.967873 -122.4692 curveto
87.875529 -122.57575 87.832908 -122.6823 87.797391 -122.94513 curveto
87.172292 -122.94513 lineto
87.200705 -122.08562 87.683738 -121.67362 88.656903 -121.67362 curveto
89.59455 -121.67362 90.191237 -122.13534 90.191237 -122.85278 curveto
90.191237 -123.40685 89.878687 -123.7123 89.139934 -123.88988 curveto
88.571662 -124.02485 lineto
88.088631 -124.1385 87.882632 -124.29477 87.882632 -124.5576 curveto
87.882632 -124.89856 88.188079 -125.11877 88.671109 -125.11877 curveto
89.147037 -125.11877 89.40276 -124.91277 89.416966 -124.52208 curveto
90.042066 -124.52208 lineto
fill
grestore
gsave
0 0 0 setrgbcolor
newpath
92.28674 -125.55918 moveto
91.675848 -125.55918 lineto
91.675848 -126.58207 lineto
91.086265 -126.58207 lineto
91.086265 -125.55918 lineto
90.581924 -125.55918 lineto
90.581924 -125.07615 lineto
91.086265 -125.07615 lineto
91.086265 -122.2632 lineto
91.086265 -121.88672 91.341988 -121.67362 91.803709 -121.67362 curveto
91.945777 -121.67362 92.087845 -121.68783 92.28674 -121.72334 curveto
92.28674 -122.22058 lineto
92.208603 -122.19927 92.116258 -122.19217 92.002604 -122.19217 curveto
91.746882 -122.19217 91.675848 -122.2632 91.675848 -122.52603 curveto
91.675848 -125.07615 lineto
92.28674 -125.07615 lineto
92.28674 -125.55918 lineto
fill
grestore
gsave
0 0 0 setrgbcolor
newpath
96.252879 -122.18506 moveto
96.188949 -122.17086 96.160535 -122.17086 96.125018 -122.17086 curveto
95.91902 -122.17086 95.805365 -122.27741 95.805365 -122.4621 curveto
95.805365 -124.64994 lineto
95.805365 -125.31056 95.322333 -125.66573 94.405995 -125.66573 curveto
93.866137 -125.66573 93.418622 -125.50946 93.170004 -125.23242 curveto
92.999522 -125.04063 92.928488 -124.82753 92.914281 -124.45815 curveto
93.510967 -124.45815 lineto
93.560691 -124.91277 93.83062 -125.11877 94.384685 -125.11877 curveto
94.917439 -125.11877 95.215783 -124.91987 95.215783 -124.5647 curveto
95.215783 -124.40843 lineto
95.215783 -124.15981 95.066611 -124.05326 94.597787 -123.99643 curveto
93.759587 -123.88988 93.631724 -123.86147 93.404416 -123.76912 curveto
92.971109 -123.59154 92.750903 -123.25768 92.750903 -122.77465 curveto
92.750903 -122.09982 93.219728 -121.67362 93.972688 -121.67362 curveto
94.441512 -121.67362 94.817993 -121.837 95.237093 -122.22058 curveto
95.279713 -121.8441 95.464402 -121.67362 95.847985 -121.67362 curveto
95.968743 -121.67362 96.061088 -121.68783 96.252879 -121.73755 curveto
96.252879 -122.18506 lineto
95.215783 -123.00906 moveto
95.215783 -122.81016 95.158955 -122.68941 94.981371 -122.52603 curveto
94.739855 -122.30582 94.448615 -122.19217 94.100549 -122.19217 curveto
93.638828 -122.19217 93.368899 -122.41237 93.368899 -122.78885 curveto
93.368899 -123.17954 93.631725 -123.37844 94.263927 -123.47078 curveto
94.889026 -123.55602 95.016888 -123.58443 95.215783 -123.67678 curveto
95.215783 -123.00906 lineto
fill
grestore
gsave
0 0 0 setrgbcolor
newpath
96.896736 -125.55918 moveto
96.896736 -121.837 lineto
97.493422 -121.837 lineto
97.493422 -123.76912 lineto
97.493422 -124.30188 97.628387 -124.64994 97.912522 -124.85594 curveto
98.097211 -124.99091 98.274796 -125.03353 98.686793 -125.04063 curveto
98.686793 -125.64442 lineto
98.587346 -125.65863 98.537622 -125.66573 98.459484 -125.66573 curveto
98.075901 -125.66573 97.784661 -125.43842 97.443698 -124.88436 curveto
97.443698 -125.55918 lineto
96.896736 -125.55918 lineto
fill
grestore
gsave
0 0 0 setrgbcolor
newpath
100.58329 -125.55918 moveto
99.972397 -125.55918 lineto
99.972397 -126.58207 lineto
99.382815 -126.58207 lineto
99.382815 -125.55918 lineto
98.878473 -125.55918 lineto
98.878473 -125.07615 lineto
99.382815 -125.07615 lineto
99.382815 -122.2632 lineto
99.382815 -121.88672 99.638538 -121.67362 100.10026 -121.67362 curveto
100.24233 -121.67362 100.38439 -121.68783 100.58329 -121.72334 curveto
100.58329 -122.22058 lineto
100.50515 -122.19927 100.41281 -122.19217 100.29915 -122.19217 curveto
100.04343 -122.19217 99.972397 -122.2632 99.972397 -122.52603 curveto
99.972397 -125.07615 lineto
100.58329 -125.07615 lineto
100.58329 -125.55918 lineto
fill
grestore
gsave
0 0 0 setrgbcolor
newpath
83.005149 -116.67993 moveto
82.394256 -116.67993 lineto
82.394256 -117.70282 lineto
81.804674 -117.70282 lineto
81.804674 -116.67993 lineto
81.300333 -116.67993 lineto
81.300333 -116.1969 lineto
81.804674 -116.1969 lineto
81.804674 -113.38395 lineto
81.804674 -113.00747 82.060397 -112.79437 82.522118 -112.79437 curveto
82.664185 -112.79437 82.806254 -112.80858 83.005149 -112.84409 curveto
83.005149 -113.34133 lineto
82.927011 -113.32002 82.834667 -113.31292 82.721013 -113.31292 curveto
82.465291 -113.31292 82.394256 -113.38395 82.394256 -113.64678 curveto
82.394256 -116.1969 lineto
83.005149 -116.1969 lineto
83.005149 -116.67993 lineto
fill
grestore
gsave
0 0 0 setrgbcolor
newpath
83.661103 -116.67993 moveto
83.661103 -112.95775 lineto
84.257789 -112.95775 lineto
84.257789 -114.88987 lineto
84.257789 -115.42263 84.392754 -115.77069 84.67689 -115.97669 curveto
84.861578 -116.11166 85.039163 -116.15428 85.45116 -116.16138 curveto
85.45116 -116.76517 lineto
85.351713 -116.77938 85.301989 -116.78648 85.223851 -116.78648 curveto
84.840268 -116.78648 84.549028 -116.55917 84.208065 -116.00511 curveto
84.208065 -116.67993 lineto
83.661103 -116.67993 lineto
fill
grestore
gsave
0 0 0 setrgbcolor
newpath
89.343713 -113.30581 moveto
89.279782 -113.29161 89.251368 -113.29161 89.215851 -113.29161 curveto
89.009853 -113.29161 88.896198 -113.39816 88.896198 -113.58285 curveto
88.896198 -115.77069 lineto
88.896198 -116.43131 88.413166 -116.78648 87.496828 -116.78648 curveto
86.956971 -116.78648 86.509456 -116.63021 86.260837 -116.35317 curveto
86.090355 -116.16138 86.019321 -115.94828 86.005114 -115.5789 curveto
86.6018 -115.5789 lineto
86.651524 -116.03352 86.921454 -116.23952 87.475518 -116.23952 curveto
88.008273 -116.23952 88.306616 -116.04062 88.306616 -115.68545 curveto
88.306616 -115.52918 lineto
88.306616 -115.28056 88.157444 -115.17401 87.68862 -115.11718 curveto
86.85042 -115.01063 86.722558 -114.98222 86.495249 -114.88987 curveto
86.061942 -114.71229 85.841736 -114.37843 85.841736 -113.8954 curveto
85.841736 -113.22057 86.310561 -112.79437 87.063521 -112.79437 curveto
87.532345 -112.79437 87.908826 -112.95775 88.327926 -113.34133 curveto
88.370547 -112.96485 88.555235 -112.79437 88.938819 -112.79437 curveto
89.059576 -112.79437 89.151921 -112.80858 89.343713 -112.8583 curveto
89.343713 -113.30581 lineto
88.306616 -114.12981 moveto
88.306616 -113.93091 88.249789 -113.81016 88.072204 -113.64678 curveto
87.830689 -113.42657 87.539449 -113.31292 87.191382 -113.31292 curveto
86.729662 -113.31292 86.459732 -113.53312 86.459732 -113.9096 curveto
86.459732 -114.30029 86.722558 -114.49919 87.35476 -114.59153 curveto
87.979859 -114.67677 88.107721 -114.70518 88.306616 -114.79753 curveto
88.306616 -114.12981 lineto
fill
grestore
gsave
0 0 0 setrgbcolor
newpath
89.994673 -116.67993 moveto
89.994673 -112.95775 lineto
90.591359 -112.95775 lineto
90.591359 -115.01063 lineto
90.591359 -115.77069 90.98915 -116.26793 91.600041 -116.26793 curveto
92.068865 -116.26793 92.367209 -115.9838 92.367209 -115.53628 curveto
92.367209 -112.95775 lineto
92.956791 -112.95775 lineto
92.956791 -115.77069 lineto
92.956791 -116.38869 92.495069 -116.78648 91.777626 -116.78648 curveto
91.223562 -116.78648 90.868391 -116.57338 90.541635 -116.05483 curveto
90.541635 -116.67993 lineto
89.994673 -116.67993 lineto
fill
grestore
gsave
0 0 0 setrgbcolor
newpath
96.562766 -115.64283 moveto
96.555662 -116.37448 96.07263 -116.78648 95.21312 -116.78648 curveto
94.346506 -116.78648 93.785336 -116.33897 93.785336 -115.64994 curveto
93.785336 -115.06746 94.08368 -114.79042 94.964501 -114.57732 curveto
95.518566 -114.44236 lineto
95.930563 -114.34291 96.093941 -114.19374 96.093941 -113.92381 curveto
96.093941 -113.57574 95.745874 -113.34133 95.227326 -113.34133 curveto
94.907674 -113.34133 94.637744 -113.43368 94.488573 -113.58995 curveto
94.396229 -113.6965 94.353608 -113.80305 94.318091 -114.06588 curveto
93.692992 -114.06588 lineto
93.721406 -113.20637 94.204438 -112.79437 95.177603 -112.79437 curveto
96.115251 -112.79437 96.711937 -113.25609 96.711937 -113.97353 curveto
96.711937 -114.5276 96.399387 -114.83305 95.660634 -115.01063 curveto
95.092362 -115.14559 lineto
94.609331 -115.25925 94.403332 -115.41552 94.403332 -115.67835 curveto
94.403332 -116.01931 94.708779 -116.23952 95.191809 -116.23952 curveto
95.667737 -116.23952 95.92346 -116.03352 95.937666 -115.64283 curveto
96.562766 -115.64283 lineto
fill
grestore
gsave
0 0 0 setrgbcolor
newpath
97.500414 -116.67993 moveto
97.500414 -112.95775 lineto
98.0971 -112.95775 lineto
98.0971 -115.29477 lineto
98.0971 -115.83462 98.487787 -116.26793 98.970818 -116.26793 curveto
99.411228 -116.26793 99.659848 -115.998 99.659848 -115.52208 curveto
99.659848 -112.95775 lineto
100.25653 -112.95775 lineto
100.25653 -115.29477 lineto
100.25653 -115.83462 100.64722 -116.26793 101.13025 -116.26793 curveto
101.56356 -116.26793 101.81928 -115.9909 101.81928 -115.52208 curveto
101.81928 -112.95775 lineto
102.41597 -112.95775 lineto
102.41597 -115.74938 lineto
102.41597 -116.4171 102.03238 -116.78648 101.33625 -116.78648 curveto
100.83901 -116.78648 100.54067 -116.63731 100.1926 -116.21821 curveto
99.972398 -116.616 99.674054 -116.78648 99.191023 -116.78648 curveto
98.693786 -116.78648 98.367029 -116.60179 98.047376 -116.15428 curveto
98.047376 -116.67993 lineto
97.500414 -116.67993 lineto
fill
grestore
gsave
0 0 0 setrgbcolor
newpath
103.99281 -116.67993 moveto
103.40323 -116.67993 lineto
103.40323 -112.95775 lineto
103.99281 -112.95775 lineto
103.99281 -116.67993 lineto
103.99281 -118.13613 moveto
103.39613 -118.13613 lineto
103.39613 -117.39027 lineto
103.99281 -117.39027 lineto
103.99281 -118.13613 lineto
fill
grestore
gsave
0 0 0 setrgbcolor
newpath
106.31318 -116.67993 moveto
105.70229 -116.67993 lineto
105.70229 -117.70282 lineto
105.11271 -117.70282 lineto
105.11271 -116.67993 lineto
104.60837 -116.67993 lineto
104.60837 -116.1969 lineto
105.11271 -116.1969 lineto
105.11271 -113.38395 lineto
105.11271 -113.00747 105.36843 -112.79437 105.83015 -112.79437 curveto
105.97222 -112.79437 106.11429 -112.80858 106.31318 -112.84409 curveto
106.31318 -113.34133 lineto
106.23504 -113.32002 106.1427 -113.31292 106.02905 -113.31292 curveto
105.77332 -113.31292 105.70229 -113.38395 105.70229 -113.64678 curveto
105.70229 -116.1969 lineto
106.31318 -116.1969 lineto
106.31318 -116.67993 lineto
fill
grestore
grestore
grestore
0 0 0 setrgbcolor
[] 0 setdash
0.33210003 setlinewidth
1 setlinejoin
1 setlinecap
newpath
352.625 103.69799 moveto
356.07525 109.54799 lineto
357.875 104.44799 lineto
360.72512 109.39799 lineto
stroke
gsave
0 0 0 setrgbcolor
newpath
363.125 113.29799 moveto
357.42475 109.69799 lineto
358.17475 109.54799 lineto
359.07525 109.24799 lineto
359.67475 109.09799 lineto
360.42475 108.79799 lineto
361.02487 108.34799 lineto
361.625 107.74799 lineto
362.22512 107.14799 lineto
362.67475 106.69799 lineto
362.67475 106.69799 lineto
363.125 113.29799 lineto
363.125 113.29799 lineto
eofill
grestore
gsave
1 1 1 setrgbcolor
newpath
416.525 121.54799 moveto
416.525 120.19799 lineto
416.225 119.44799 lineto
416.075 118.84799 lineto
415.625 118.24799 lineto
415.175 117.49799 lineto
414.725 116.89799 lineto
414.275 116.14799 lineto
413.675 115.69799 lineto
413.075 115.09799 lineto
412.325 114.34799 lineto
411.575 113.89799 lineto
410.675 113.44799 lineto
409.775 112.84799 lineto
408.875 112.24799 lineto
407.975 111.79799 lineto
406.925 111.34799 lineto
405.875 110.89799 lineto
404.825 110.59799 lineto
403.625 110.14799 lineto
402.425 109.84799 lineto
401.225 109.54799 lineto
399.875 109.24799 lineto
398.675 108.79799 lineto
397.325 108.64799 lineto
395.975 108.34799 lineto
394.475 108.34799 lineto
393.125 108.04799 lineto
391.775 107.89799 lineto
382.775 107.89799 lineto
381.275 108.04799 lineto
379.925 108.34799 lineto
378.57525 108.34799 lineto
377.07525 108.64799 lineto
375.72512 108.79799 lineto
374.52487 109.24799 lineto
373.17475 109.54799 lineto
371.97512 109.84799 lineto
370.77487 110.14799 lineto
369.72512 110.59799 lineto
368.52487 110.89799 lineto
367.47512 111.34799 lineto
366.42475 111.79799 lineto
365.375 112.24799 lineto
364.625 112.84799 lineto
363.72512 113.44799 lineto
362.82525 113.89799 lineto
362.07525 114.34799 lineto
361.47512 115.09799 lineto
360.72512 115.69799 lineto
360.27487 116.14799 lineto
359.67475 116.89799 lineto
359.22512 117.49799 lineto
358.77487 118.24799 lineto
358.47512 118.84799 lineto
358.17475 119.44799 lineto
358.02487 120.19799 lineto
357.875 120.79799 lineto
357.875 122.29799 lineto
358.02487 123.04799 lineto
358.17475 123.79799 lineto
358.47512 124.39799 lineto
358.77487 124.99799 lineto
359.22512 125.74799 lineto
359.67475 126.34799 lineto
360.27487 126.94799 lineto
360.72512 127.54799 lineto
361.47512 128.14799 lineto
362.07525 128.74799 lineto
362.82525 129.34799 lineto
363.72512 129.79799 lineto
364.625 130.39799 lineto
365.375 130.84799 lineto
366.42475 131.44799 lineto
367.47512 131.89799 lineto
368.52487 132.34799 lineto
369.72512 132.64799 lineto
370.77487 133.09799 lineto
371.97512 133.39799 lineto
373.17475 133.69799 lineto
374.52487 133.99799 lineto
375.72512 134.29799 lineto
377.07525 134.44799 lineto
378.57525 134.74799 lineto
379.925 134.89799 lineto
381.275 135.04799 lineto
382.775 135.34799 lineto
391.775 135.34799 lineto
393.125 135.04799 lineto
394.475 134.89799 lineto
395.975 134.74799 lineto
397.325 134.44799 lineto
398.675 134.29799 lineto
399.875 133.99799 lineto
401.225 133.69799 lineto
402.425 133.39799 lineto
403.625 133.09799 lineto
404.825 132.64799 lineto
405.875 132.34799 lineto
406.925 131.89799 lineto
407.975 131.44799 lineto
408.875 130.84799 lineto
409.775 130.39799 lineto
410.675 129.79799 lineto
411.575 129.34799 lineto
412.325 128.74799 lineto
413.075 128.14799 lineto
413.675 127.54799 lineto
414.275 126.94799 lineto
414.725 126.34799 lineto
415.175 125.74799 lineto
415.625 124.99799 lineto
416.075 124.39799 lineto
416.225 123.79799 lineto
416.525 123.04799 lineto
416.525 121.54799 lineto
eofill
grestore
0 0 0 setrgbcolor
[] 0 setdash
0.33210003 setlinewidth
1 setlinejoin
1 setlinecap
newpath
416.525 121.54799 moveto
416.525 120.19799 lineto
416.225 119.44799 lineto
416.075 118.84799 lineto
415.625 118.24799 lineto
415.175 117.49799 lineto
414.725 116.89799 lineto
414.275 116.14799 lineto
413.675 115.69799 lineto
413.075 115.09799 lineto
412.325 114.34799 lineto
411.575 113.89799 lineto
410.675 113.44799 lineto
409.775 112.84799 lineto
408.875 112.24799 lineto
407.975 111.79799 lineto
406.925 111.34799 lineto
405.875 110.89799 lineto
404.825 110.59799 lineto
403.625 110.14799 lineto
402.425 109.84799 lineto
401.225 109.54799 lineto
399.875 109.24799 lineto
398.675 108.79799 lineto
397.325 108.64799 lineto
395.975 108.34799 lineto
394.475 108.34799 lineto
393.125 108.04799 lineto
391.775 107.89799 lineto
382.775 107.89799 lineto
381.275 108.04799 lineto
379.925 108.34799 lineto
378.57525 108.34799 lineto
377.07525 108.64799 lineto
375.72512 108.79799 lineto
374.52487 109.24799 lineto
373.17475 109.54799 lineto
371.97512 109.84799 lineto
370.77487 110.14799 lineto
369.72512 110.59799 lineto
368.52487 110.89799 lineto
367.47512 111.34799 lineto
366.42475 111.79799 lineto
365.375 112.24799 lineto
364.625 112.84799 lineto
363.72512 113.44799 lineto
362.82525 113.89799 lineto
362.07525 114.34799 lineto
361.47512 115.09799 lineto
360.72512 115.69799 lineto
360.27487 116.14799 lineto
359.67475 116.89799 lineto
359.22512 117.49799 lineto
358.77487 118.24799 lineto
358.47512 118.84799 lineto
358.17475 119.44799 lineto
358.02487 120.19799 lineto
357.875 120.79799 lineto
357.875 122.29799 lineto
358.02487 123.04799 lineto
358.17475 123.79799 lineto
358.47512 124.39799 lineto
358.77487 124.99799 lineto
359.22512 125.74799 lineto
359.67475 126.34799 lineto
360.27487 126.94799 lineto
360.72512 127.54799 lineto
361.47512 128.14799 lineto
362.07525 128.74799 lineto
362.82525 129.34799 lineto
363.72512 129.79799 lineto
364.625 130.39799 lineto
365.375 130.84799 lineto
366.42475 131.44799 lineto
367.47512 131.89799 lineto
368.52487 132.34799 lineto
369.72512 132.64799 lineto
370.77487 133.09799 lineto
371.97512 133.39799 lineto
373.17475 133.69799 lineto
374.52487 133.99799 lineto
375.72512 134.29799 lineto
377.07525 134.44799 lineto
378.57525 134.74799 lineto
379.925 134.89799 lineto
381.275 135.04799 lineto
382.775 135.34799 lineto
391.775 135.34799 lineto
393.125 135.04799 lineto
394.475 134.89799 lineto
395.975 134.74799 lineto
397.325 134.44799 lineto
398.675 134.29799 lineto
399.875 133.99799 lineto
401.225 133.69799 lineto
402.425 133.39799 lineto
403.625 133.09799 lineto
404.825 132.64799 lineto
405.875 132.34799 lineto
406.925 131.89799 lineto
407.975 131.44799 lineto
408.875 130.84799 lineto
409.775 130.39799 lineto
410.675 129.79799 lineto
411.575 129.34799 lineto
412.325 128.74799 lineto
413.075 128.14799 lineto
413.675 127.54799 lineto
414.275 126.94799 lineto
414.725 126.34799 lineto
415.175 125.74799 lineto
415.625 124.99799 lineto
416.075 124.39799 lineto
416.225 123.79799 lineto
416.525 123.04799 lineto
416.525 121.54799 lineto
stroke
gsave [1.25 0 0 -1.25 254.625 271.29424] concat
gsave [1 0 0 -1 103.24 117.637] concat
gsave
0 0 0 setrgbcolor
newpath
1.8042637 -3.7221817 moveto
1.1933712 -3.7221817 lineto
1.1933712 -4.7450714 lineto
0.60378902 -4.7450714 lineto
0.60378902 -3.7221817 lineto
0.099447603 -3.7221817 lineto
0.099447603 -3.2391505 lineto
0.60378902 -3.2391505 lineto
0.60378902 -0.42620401 lineto
0.60378902 -0.049724178 0.85951189 0.16337821 1.3212324 0.16337821 curveto
1.4633003 0.16337821 1.6053687 0.14917137 1.8042637 0.1136544 curveto
1.8042637 -0.38358361 lineto
1.7261263 -0.36227343 1.6337819 -0.35517001 1.5201276 -0.35517001 curveto
1.2644055 -0.35517001 1.1933712 -0.42620428 1.1933712 -0.68902982 curveto
1.1933712 -3.2391505 lineto
1.8042637 -3.2391505 lineto
1.8042637 -3.7221817 lineto
fill
grestore
gsave
0 0 0 setrgbcolor
newpath
4.1141969 -1.9250215 moveto
5.3643953 -3.7221817 lineto
4.6966757 -3.7221817 lineto
3.8016473 -2.3725357 lineto
2.9066188 -3.7221817 lineto
2.2317958 -3.7221817 lineto
3.4748909 -1.8966079 lineto
2.1607618 0 lineto
2.8355848 0 lineto
3.7803371 -1.4277834 lineto
4.7108825 0 lineto
5.3999123 0 lineto
4.1141969 -1.9250215 lineto
fill
grestore
grestore
grestore
gsave
0 0 0 setrgbcolor
newpath
303.7917 94.304193 moveto
303.78282 93.034461 302.91265 92.297482 301.42094 92.297482 curveto
300.00026 92.297482 299.12121 93.025582 299.12121 94.197642 curveto
299.12121 94.987894 299.53854 95.485133 300.39094 95.707114 curveto
301.99809 96.133318 lineto
302.81498 96.34642 303.18791 96.674953 303.18791 97.18107 curveto
303.18791 97.52736 303.00144 97.882531 302.72619 98.077874 curveto
302.46869 98.255459 302.06024 98.353131 301.53637 98.353131 curveto
300.83491 98.353131 300.35543 98.184425 300.04465 97.811496 curveto
299.80491 97.527361 299.69836 97.216586 299.70724 96.81702 curveto
298.92587 96.81702 lineto
298.93475 97.41193 299.05018 97.802618 299.30768 98.157787 curveto
299.75164 98.761576 300.4975 99.081229 301.48309 99.081229 curveto
302.25559 99.081229 302.88601 98.903644 303.30334 98.583991 curveto
303.73842 98.237701 304.01368 97.660549 304.01368 97.101156 curveto
304.01368 96.302025 303.51644 95.715993 302.6374 95.476254 curveto
301.01249 95.04117 lineto
300.23112 94.828069 299.94698 94.579449 299.94698 94.082211 curveto
299.94698 93.425147 300.52413 92.990063 301.3943 92.990063 curveto
302.42429 92.990063 303.00144 93.460665 303.01032 94.304193 curveto
303.7917 94.304193 lineto
fill
grestore
gsave
0 0 0 setrgbcolor
newpath
308.98578 96.799262 moveto
308.98578 96.088923 308.93251 95.662717 308.79932 95.316427 curveto
308.49742 94.552812 307.78708 94.09109 306.91692 94.09109 curveto
305.62055 94.09109 304.7859 95.085568 304.7859 96.612798 curveto
304.7859 98.140027 305.59391 99.081229 306.89916 99.081229 curveto
307.96467 99.081229 308.70165 98.477439 308.88811 97.465206 curveto
308.14225 97.465206 lineto
307.93803 98.077873 307.5207 98.397527 306.9258 98.397527 curveto
306.4552 98.397527 306.05563 98.184425 305.80701 97.793738 curveto
305.62943 97.527361 305.56727 97.260982 305.55839 96.799262 curveto
308.98578 96.799262 lineto
305.57615 96.195473 moveto
305.6383 95.334186 306.16218 94.774793 306.90804 94.774793 curveto
307.63613 94.774793 308.19553 95.378583 308.19553 96.142197 curveto
308.19553 96.159956 308.19553 96.177714 308.18665 96.195473 curveto
305.57615 96.195473 lineto
fill
grestore
gsave
0 0 0 setrgbcolor
newpath
309.98595 94.224279 moveto
309.98595 98.877007 lineto
310.7318 98.877007 lineto
310.7318 96.46185 lineto
310.7318 95.795907 310.90051 95.360823 311.25568 95.103325 curveto
311.48654 94.934619 311.70852 94.881344 312.22352 94.872465 curveto
312.22352 94.117728 lineto
312.09921 94.09997 312.03705 94.09109 311.93938 94.09109 curveto
311.4599 94.09109 311.09585 94.375227 310.66965 95.067808 curveto
310.66965 94.224279 lineto
309.98595 94.224279 lineto
fill
grestore
gsave
0 0 0 setrgbcolor
newpath
313.6707 94.224279 moveto
312.93372 94.224279 lineto
312.93372 98.877007 lineto
313.6707 98.877007 lineto
313.6707 94.224279 lineto
313.6707 92.404033 moveto
312.92484 92.404033 lineto
312.92484 93.336354 lineto
313.6707 93.336354 lineto
313.6707 92.404033 lineto
fill
grestore
gsave
0 0 0 setrgbcolor
newpath
319.06623 98.441923 moveto
318.98632 98.459682 318.9508 98.459682 318.9064 98.459682 curveto
318.6489 98.459682 318.50684 98.326493 318.50684 98.095632 curveto
318.50684 95.360823 lineto
318.50684 94.535054 317.90305 94.09109 316.75762 94.09109 curveto
316.0828 94.09109 315.52341 94.286434 315.21263 94.632725 curveto
314.99953 94.872464 314.91074 95.138843 314.89298 95.600563 curveto
315.63884 95.600563 lineto
315.70099 95.032292 316.0384 94.774793 316.73099 94.774793 curveto
317.39693 94.774793 317.76986 95.023412 317.76986 95.467374 curveto
317.76986 95.662718 lineto
317.76986 95.973491 317.58339 96.10668 316.99736 96.177714 curveto
315.94961 96.310903 315.78978 96.34642 315.50565 96.46185 curveto
314.96402 96.683831 314.68876 97.101157 314.68876 97.704945 curveto
314.68876 98.548473 315.27479 99.081229 316.21599 99.081229 curveto
316.80202 99.081229 317.27262 98.877006 317.7965 98.397527 curveto
317.84977 98.868127 318.08063 99.081229 318.56011 99.081229 curveto
318.71106 99.081229 318.82649 99.063471 319.06623 99.001316 curveto
319.06623 98.441923 lineto
317.76986 97.41193 moveto
317.76986 97.660549 317.69882 97.811497 317.47684 98.015719 curveto
317.17495 98.290976 316.8109 98.433044 316.37582 98.433044 curveto
315.79866 98.433044 315.46125 98.157787 315.46125 97.687187 curveto
315.46125 97.198829 315.78979 96.950209 316.58004 96.834779 curveto
317.36141 96.728228 317.52124 96.692711 317.76986 96.577281 curveto
317.76986 97.41193 lineto
fill
grestore
gsave
0 0 0 setrgbcolor
newpath
320.60803 92.404033 moveto
319.86217 92.404033 lineto
319.86217 98.877007 lineto
320.60803 98.877007 lineto
320.60803 92.404033 lineto
fill
grestore
gsave
0 0 0 setrgbcolor
newpath
fill
grestore
gsave
0 0 0 setrgbcolor
newpath
325.42058 92.404033 moveto
324.58593 92.404033 lineto
324.58593 98.877007 lineto
325.42058 98.877007 lineto
325.42058 92.404033 lineto
fill
grestore
gsave
0 0 0 setrgbcolor
newpath
326.78216 94.224279 moveto
326.78216 98.877007 lineto
327.52801 98.877007 lineto
327.52801 96.310903 lineto
327.52801 95.360824 328.02525 94.739276 328.78887 94.739276 curveto
329.3749 94.739276 329.74783 95.094446 329.74783 95.653839 curveto
329.74783 98.877007 lineto
330.48481 98.877007 lineto
330.48481 95.360823 lineto
330.48481 94.588329 329.90765 94.09109 329.01085 94.09109 curveto
328.31827 94.09109 327.87431 94.357469 327.46586 95.005653 curveto
327.46586 94.224279 lineto
326.78216 94.224279 lineto
fill
grestore
gsave
0 0 0 setrgbcolor
newpath
333.35849 94.224279 moveto
332.59487 94.224279 lineto
332.59487 92.945667 lineto
331.8579 92.945667 lineto
331.8579 94.224279 lineto
331.22747 94.224279 lineto
331.22747 94.828068 lineto
331.8579 94.828068 lineto
331.8579 98.344251 lineto
331.8579 98.814851 332.17755 99.081229 332.7547 99.081229 curveto
332.93229 99.081229 333.10987 99.063471 333.35849 99.019075 curveto
333.35849 98.397527 lineto
333.26082 98.424165 333.14539 98.433044 333.00332 98.433044 curveto
332.68367 98.433044 332.59487 98.344251 332.59487 98.015719 curveto
332.59487 94.828068 lineto
333.35849 94.828068 lineto
333.35849 94.224279 lineto
fill
grestore
gsave
0 0 0 setrgbcolor
newpath
338.12082 96.799262 moveto
338.12082 96.088923 338.06755 95.662717 337.93436 95.316427 curveto
337.63246 94.552812 336.92212 94.09109 336.05196 94.09109 curveto
334.75559 94.09109 333.92094 95.085568 333.92094 96.612798 curveto
333.92094 98.140027 334.72895 99.081229 336.0342 99.081229 curveto
337.09971 99.081229 337.83669 98.477439 338.02315 97.465206 curveto
337.27729 97.465206 lineto
337.07307 98.077873 336.65574 98.397527 336.06083 98.397527 curveto
335.59023 98.397527 335.19067 98.184425 334.94205 97.793738 curveto
334.76446 97.527361 334.70231 97.260982 334.69343 96.799262 curveto
338.12082 96.799262 lineto
334.71119 96.195473 moveto
334.77334 95.334186 335.29722 94.774793 336.04308 94.774793 curveto
336.77117 94.774793 337.33057 95.378583 337.33057 96.142197 curveto
337.33057 96.159956 337.33057 96.177714 337.32169 96.195473 curveto
334.71119 96.195473 lineto
fill
grestore
gsave
0 0 0 setrgbcolor
newpath
339.12099 94.224279 moveto
339.12099 98.877007 lineto
339.86685 98.877007 lineto
339.86685 96.46185 lineto
339.86685 95.795907 340.03555 95.360823 340.39072 95.103325 curveto
340.62158 94.934619 340.84356 94.881344 341.35856 94.872465 curveto
341.35856 94.117728 lineto
341.23425 94.09997 341.17209 94.09109 341.07442 94.09109 curveto
340.59494 94.09109 340.23089 94.375227 339.80469 95.067808 curveto
339.80469 94.224279 lineto
339.12099 94.224279 lineto
fill
grestore
gsave
0 0 0 setrgbcolor
newpath
343.7647 94.224279 moveto
342.9922 94.224279 lineto
342.9922 93.496181 lineto
342.9922 93.185407 343.16979 93.02558 343.5072 93.02558 curveto
343.56935 93.02558 343.59599 93.02558 343.7647 93.03446 curveto
343.7647 92.421791 lineto
343.59599 92.386274 343.49832 92.377395 343.34737 92.377395 curveto
342.66367 92.377395 342.25522 92.768083 342.25522 93.434026 curveto
342.25522 94.224279 lineto
341.63368 94.224279 lineto
341.63368 94.828068 lineto
342.25522 94.828068 lineto
342.25522 98.877007 lineto
342.9922 98.877007 lineto
342.9922 94.828068 lineto
343.7647 94.828068 lineto
343.7647 94.224279 lineto
fill
grestore
gsave
0 0 0 setrgbcolor
newpath
348.68685 98.441923 moveto
348.60694 98.459682 348.57142 98.459682 348.52703 98.459682 curveto
348.26953 98.459682 348.12746 98.326493 348.12746 98.095632 curveto
348.12746 95.360823 lineto
348.12746 94.535054 347.52367 94.09109 346.37825 94.09109 curveto
345.70343 94.09109 345.14403 94.286434 344.83326 94.632725 curveto
344.62016 94.872464 344.53136 95.138843 344.51361 95.600563 curveto
345.25946 95.600563 lineto
345.32162 95.032292 345.65903 94.774793 346.35161 94.774793 curveto
347.01755 94.774793 347.39048 95.023412 347.39048 95.467374 curveto
347.39048 95.662718 lineto
347.39048 95.973491 347.20402 96.10668 346.61799 96.177714 curveto
345.57024 96.310903 345.41041 96.34642 345.12627 96.46185 curveto
344.58464 96.683831 344.30938 97.101157 344.30938 97.704945 curveto
344.30938 98.548473 344.89541 99.081229 345.83661 99.081229 curveto
346.42264 99.081229 346.89325 98.877006 347.41712 98.397527 curveto
347.4704 98.868127 347.70126 99.081229 348.18074 99.081229 curveto
348.33168 99.081229 348.44711 99.063471 348.68685 99.001316 curveto
348.68685 98.441923 lineto
347.39048 97.41193 moveto
347.39048 97.660549 347.31945 97.811497 347.09747 98.015719 curveto
346.79557 98.290976 346.43152 98.433044 345.99644 98.433044 curveto
345.41929 98.433044 345.08188 98.157787 345.08188 97.687187 curveto
345.08188 97.198829 345.41041 96.950209 346.20066 96.834779 curveto
346.98204 96.728228 347.14186 96.692711 347.39048 96.577281 curveto
347.39048 97.41193 lineto
fill
grestore
gsave
0 0 0 setrgbcolor
newpath
353.06113 95.787027 moveto
353.02562 95.334186 352.92794 95.04117 352.75036 94.783672 curveto
352.43071 94.348589 351.87131 94.09109 351.22313 94.09109 curveto
349.97115 94.09109 349.15426 95.085568 349.15426 96.630556 curveto
349.15426 98.131148 349.9534 99.081229 351.21425 99.081229 curveto
352.32415 99.081229 353.02562 98.415284 353.11441 97.278741 curveto
352.36855 97.278741 lineto
352.24424 98.024598 351.86243 98.397527 351.23201 98.397527 curveto
350.41512 98.397527 349.92676 97.731582 349.92676 96.630556 curveto
349.92676 95.467375 350.40624 94.774793 351.21425 94.774793 curveto
351.8358 94.774793 352.22648 95.138843 352.31528 95.787027 curveto
353.06113 95.787027 lineto
fill
grestore
gsave
0 0 0 setrgbcolor
newpath
357.87369 96.799262 moveto
357.87369 96.088923 357.82041 95.662717 357.68722 95.316427 curveto
357.38533 94.552812 356.67499 94.09109 355.80482 94.09109 curveto
354.50845 94.09109 353.6738 95.085568 353.6738 96.612798 curveto
353.6738 98.140027 354.48181 99.081229 355.78706 99.081229 curveto
356.85257 99.081229 357.58955 98.477439 357.77601 97.465206 curveto
357.03016 97.465206 lineto
356.82593 98.077873 356.40861 98.397527 355.8137 98.397527 curveto
355.3431 98.397527 354.94353 98.184425 354.69491 97.793738 curveto
354.51733 97.527361 354.45517 97.260982 354.4463 96.799262 curveto
357.87369 96.799262 lineto
354.46405 96.195473 moveto
354.52621 95.334186 355.05008 94.774793 355.79594 94.774793 curveto
356.52404 94.774793 357.08343 95.378583 357.08343 96.142197 curveto
357.08343 96.159956 357.08343 96.177714 357.07455 96.195473 curveto
354.46405 96.195473 lineto
fill
grestore
0 0 0 setrgbcolor
[] 0 setdash
0.33210003 setlinewidth
1 setlinejoin
1 setlinecap
newpath
417.6592 102.38849 moveto
421.10945 108.23849 lineto
422.9092 103.13849 lineto
425.75932 108.08849 lineto
stroke
gsave
0 0 0 setrgbcolor
newpath
428.1592 111.98849 moveto
422.45895 108.38849 lineto
423.20895 108.23849 lineto
424.10945 107.93849 lineto
424.70895 107.78849 lineto
425.45895 107.48849 lineto
426.05907 107.03849 lineto
426.6592 106.43849 lineto
427.25932 105.83849 lineto
427.70895 105.38849 lineto
427.70895 105.38849 lineto
428.1592 111.98849 lineto
428.1592 111.98849 lineto
eofill
grestore
grestore
gsave
0.97254902 0.85882354 0.3764706 setrgbcolor
newpath
169.47509 142.54799 moveto
238.47511 142.54799 lineto
238.92474 142.39811 lineto
239.37499 142.24823 lineto
239.67474 142.24823 lineto
240.12499 141.79799 lineto
240.27486 141.49823 lineto
240.57524 141.19798 lineto
240.57524 101.74823 lineto
240.27486 101.44798 lineto
240.12499 101.14811 lineto
239.67474 100.84836 lineto
239.37499 100.69798 lineto
238.92474 100.54798 lineto
169.02489 100.54798 lineto
168.57519 100.69798 lineto
168.27489 100.84836 lineto
167.82519 101.14811 lineto
167.67479 101.44798 lineto
167.37499 101.74823 lineto
167.37499 141.19798 lineto
167.67479 141.49823 lineto
167.82519 141.79799 lineto
168.27489 142.24823 lineto
168.57519 142.24823 lineto
169.02489 142.39811 lineto
169.47509 142.54799 lineto
169.47509 142.54799 lineto
eofill
grestore
0 0 0 setrgbcolor
[] 0 setdash
0.33210003 setlinewidth
1 setlinejoin
1 setlinecap
newpath
169.47509 142.54799 moveto
238.47511 142.54799 lineto
238.92474 142.39811 lineto
239.37499 142.24823 lineto
239.67474 142.24823 lineto
240.12499 141.79799 lineto
240.27486 141.49823 lineto
240.57524 141.19798 lineto
240.57524 101.74823 lineto
240.27486 101.44798 lineto
240.12499 101.14811 lineto
239.67474 100.84836 lineto
239.37499 100.69798 lineto
238.92474 100.54798 lineto
169.02489 100.54798 lineto
168.57519 100.69798 lineto
168.27489 100.84836 lineto
167.82519 101.14811 lineto
167.67479 101.44798 lineto
167.37499 101.74823 lineto
167.37499 141.19798 lineto
167.67479 141.49823 lineto
167.82519 141.79799 lineto
168.27489 142.24823 lineto
168.57519 142.24823 lineto
169.02489 142.39811 lineto
169.47509 142.54799 lineto
169.47509 142.54799 lineto
stroke
gsave
1 1 1 setrgbcolor
newpath
181.02487 134.59836 moveto
225.27486 134.59836 lineto
225.42474 134.44798 lineto
225.57524 134.29799 lineto
225.72511 134.14811 lineto
225.87499 133.84836 lineto
226.02486 133.69798 lineto
226.02486 110.44798 lineto
225.87499 110.29799 lineto
225.72511 109.99823 lineto
225.57524 109.84836 lineto
225.42474 109.69798 lineto
225.27486 109.54799 lineto
224.97511 109.39811 lineto
180.87499 109.39811 lineto
180.57524 109.54799 lineto
180.42474 109.69798 lineto
180.12499 109.84836 lineto
180.12499 109.99823 lineto
179.97512 110.29799 lineto
179.82524 110.44798 lineto
179.82524 133.69798 lineto
179.97512 133.84836 lineto
180.12499 134.14811 lineto
180.12499 134.29799 lineto
180.42474 134.44798 lineto
180.57524 134.59836 lineto
181.02487 134.59836 lineto
181.02487 134.59836 lineto
eofill
grestore
0 0 0 setrgbcolor
[] 0 setdash
0.33210003 setlinewidth
1 setlinejoin
1 setlinecap
newpath
181.02487 134.59836 moveto
225.27486 134.59836 lineto
225.42474 134.44798 lineto
225.57524 134.29799 lineto
225.72511 134.14811 lineto
225.87499 133.84836 lineto
226.02486 133.69798 lineto
226.02486 110.44798 lineto
225.87499 110.29799 lineto
225.72511 109.99823 lineto
225.57524 109.84836 lineto
225.42474 109.69798 lineto
225.27486 109.54799 lineto
224.97511 109.39811 lineto
180.87499 109.39811 lineto
180.57524 109.54799 lineto
180.42474 109.69798 lineto
180.12499 109.84836 lineto
180.12499 109.99823 lineto
179.97512 110.29799 lineto
179.82524 110.44798 lineto
179.82524 133.69798 lineto
179.97512 133.84836 lineto
180.12499 134.14811 lineto
180.12499 134.29799 lineto
180.42474 134.44798 lineto
180.57524 134.59836 lineto
181.02487 134.59836 lineto
181.02487 134.59836 lineto
stroke
gsave [1.25 0 0 -1.25 179.94211 211.70898] concat
gsave [1 0 0 -1 0 0] concat
gsave
0 0 0 setrgbcolor
newpath
13.958331 -74.919485 moveto
13.958331 -71.197304 lineto
14.555017 -71.197304 lineto
14.555017 -73.129429 lineto
14.555017 -73.662183 14.689982 -74.01025 14.974117 -74.216249 curveto
15.158806 -74.351213 15.336391 -74.393834 15.748388 -74.400937 curveto
15.748388 -75.004726 lineto
15.64894 -75.018933 15.599216 -75.026036 15.521079 -75.026036 curveto
15.137496 -75.026036 14.846256 -74.798727 14.505293 -74.244662 curveto
14.505293 -74.919485 lineto
13.958331 -74.919485 lineto
fill
grestore
gsave
0 0 0 setrgbcolor
newpath
19.26446 -71.197304 moveto
19.26446 -74.919485 lineto
18.674878 -74.919485 lineto
18.674878 -72.809776 lineto
18.674878 -72.049713 18.277087 -71.552474 17.659092 -71.552474 curveto
17.190268 -71.552474 16.891924 -71.83661 16.891924 -72.284124 curveto
16.891924 -74.919485 lineto
16.302342 -74.919485 lineto
16.302342 -72.049712 lineto
16.302342 -71.431717 16.764064 -71.033926 17.48861 -71.033926 curveto
18.035571 -71.033926 18.383639 -71.225718 18.731705 -71.715852 curveto
18.731705 -71.197304 lineto
19.26446 -71.197304 lineto
fill
grestore
gsave
0 0 0 setrgbcolor
newpath
20.2919 -74.919485 moveto
20.2919 -71.197304 lineto
20.888586 -71.197304 lineto
20.888586 -73.250186 lineto
20.888586 -74.01025 21.286377 -74.507488 21.897269 -74.507488 curveto
22.366092 -74.507488 22.664436 -74.223352 22.664436 -73.775838 curveto
22.664436 -71.197304 lineto
23.254018 -71.197304 lineto
23.254018 -74.01025 lineto
23.254018 -74.628245 22.792296 -75.026036 22.074854 -75.026036 curveto
21.520789 -75.026036 21.165618 -74.812934 20.838862 -74.294386 curveto
20.838862 -74.919485 lineto
20.2919 -74.919485 lineto
fill
grestore
grestore
grestore
gsave
1 1 1 setrgbcolor
newpath
170.75869 121.36496 moveto
170.75869 120.91535 lineto
170.60881 120.61497 lineto
170.45894 120.31522 lineto
170.30906 120.01497 lineto
170.30906 119.56522 lineto
170.00869 119.26497 lineto
169.85881 118.9651 lineto
169.55906 118.66535 lineto
169.10881 118.51497 lineto
168.80906 118.2151 lineto
168.50869 118.06522 lineto
168.20894 117.91535 lineto
167.75869 117.76497 lineto
167.30906 117.61497 lineto
165.65919 117.61497 lineto
165.20894 117.76497 lineto
164.90919 117.91535 lineto
164.45894 118.06522 lineto
164.15919 118.2151 lineto
163.85881 118.51497 lineto
163.55906 118.66535 lineto
163.25869 118.9651 lineto
163.10882 119.26497 lineto
162.80907 119.56522 lineto
162.65919 120.01497 lineto
162.50869 120.31522 lineto
162.35882 120.61497 lineto
162.35882 122.11496 lineto
162.50869 122.56521 lineto
162.65919 122.86496 lineto
162.80907 123.16534 lineto
163.10882 123.46509 lineto
163.25869 123.76496 lineto
163.55906 124.06521 lineto
163.85881 124.21509 lineto
164.15919 124.51496 lineto
164.45894 124.66534 lineto
164.90919 124.81521 lineto
165.20894 124.96509 lineto
165.65919 125.11496 lineto
167.30906 125.11496 lineto
167.75869 124.96509 lineto
168.20894 124.81521 lineto
168.50869 124.66534 lineto
168.80906 124.51496 lineto
169.10881 124.21509 lineto
169.55906 124.06521 lineto
169.85881 123.76496 lineto
170.00869 123.46509 lineto
170.30906 123.16534 lineto
170.30906 122.86496 lineto
170.45894 122.56521 lineto
170.60881 122.11496 lineto
170.75869 121.66534 lineto
170.75869 121.36496 lineto
eofill
grestore
gsave [1.25 0 0 -1.25 163.03165 270.74392] concat
gsave [1 0 0 -1 3.88008 137.797] concat
gsave
0 0 0 setrgbcolor
newpath
3.9139735 -2.3583289 moveto
3.9139735 0 lineto
4.5745897 0 lineto
4.5745897 -5.1783788 lineto
3.9139735 -5.1783788 lineto
3.9139735 -2.9408077 lineto
1.2501984 -2.9408077 lineto
1.2501984 -5.1783788 lineto
0.58958222 -5.1783788 lineto
0.58958222 0 lineto
1.2573018 0 lineto
1.2573018 -2.3583289 lineto
3.9139735 -2.3583289 lineto
fill
grestore
gsave
0 0 0 setrgbcolor
newpath
8.7773608 -1.6621957 moveto
8.7773608 -2.2304671 8.7347403 -2.5714312 8.6281894 -2.8484635 curveto
8.3866741 -3.4593553 7.8184011 -3.8287327 7.1222686 -3.8287327 curveto
6.0851732 -3.8287327 5.4174525 -3.0331507 5.4174525 -1.8113671 curveto
5.4174525 -0.58958344 6.063863 0.16337821 7.1080618 0.16337821 curveto
7.960469 0.16337821 8.5500522 -0.31965382 8.6992234 -1.1294406 curveto
8.1025378 -1.1294406 lineto
7.9391598 -0.63930651 7.6052993 -0.38358361 7.129372 -0.38358361 curveto
6.7528921 -0.38358361 6.4332386 -0.55406553 6.2343436 -0.86661483 curveto
6.0922757 -1.0797166 6.0425517 -1.2928192 6.0354483 -1.6621957 curveto
8.7773608 -1.6621957 lineto
6.0496551 -2.1452269 moveto
6.0993789 -2.834256 6.5184802 -3.2817709 7.1151652 -3.2817709 curveto
7.6976434 -3.2817709 8.1451582 -2.7987391 8.1451582 -2.1878473 curveto
8.1451582 -2.1736405 8.1451582 -2.1594337 8.1380548 -2.1452269 curveto
6.0496551 -2.1452269 lineto
fill
grestore
gsave
0 0 0 setrgbcolor
newpath
10.167074 -5.1783788 moveto
9.5703887 -5.1783788 lineto
9.5703887 0 lineto
10.167074 0 lineto
10.167074 -5.1783788 lineto
fill
grestore
gsave
0 0 0 setrgbcolor
newpath
11.748691 -5.1783788 moveto
11.152005 -5.1783788 lineto
11.152005 0 lineto
11.748691 0 lineto
11.748691 -5.1783788 lineto
fill
grestore
gsave
0 0 0 setrgbcolor
newpath
14.182715 -3.8287327 moveto
13.138516 -3.8287327 12.506313 -3.0828744 12.506313 -1.8326773 curveto
12.506313 -0.58248007 13.131413 0.16337821 14.189819 0.16337821 curveto
15.234017 0.16337821 15.873324 -0.58248004 15.873324 -1.8042637 curveto
15.873324 -3.0899778 15.255328 -3.8287327 14.182715 -3.8287327 curveto
14.189819 -3.2817709 moveto
14.857538 -3.2817709 15.255329 -2.7348082 15.255329 -1.8113671 curveto
15.255329 -0.9376497 14.843331 -0.38358361 14.189819 -0.38358361 curveto
13.529203 -0.38358361 13.124309 -0.93054633 13.124309 -1.8326773 curveto
13.124309 -2.7277048 13.529203 -3.2817709 14.189819 -3.2817709 curveto
fill
grestore
gsave
0 0 0 setrgbcolor
newpath
21.489562 0 moveto
22.803691 -5.1783788 lineto
22.064937 -5.1783788 lineto
21.113081 -0.97316583 lineto
19.933917 -5.1783788 lineto
19.223577 -5.1783788 lineto
18.072826 -0.97316583 lineto
17.09966 -5.1783788 lineto
16.360907 -5.1783788 lineto
17.689242 0 lineto
18.413789 0 lineto
19.571644 -4.2549367 lineto
20.765015 0 lineto
21.489562 0 lineto
fill
grestore
gsave
0 0 0 setrgbcolor
newpath
24.837816 -3.8287327 moveto
23.793617 -3.8287327 23.161414 -3.0828744 23.161414 -1.8326773 curveto
23.161414 -0.58248007 23.786514 0.16337821 24.844919 0.16337821 curveto
25.889118 0.16337821 26.528425 -0.58248004 26.528425 -1.8042637 curveto
26.528425 -3.0899778 25.910428 -3.8287327 24.837816 -3.8287327 curveto
24.844919 -3.2817709 moveto
25.512638 -3.2817709 25.910429 -2.7348082 25.910429 -1.8113671 curveto
25.910429 -0.9376497 25.498432 -0.38358361 24.844919 -0.38358361 curveto
24.184304 -0.38358361 23.779409 -0.93054633 23.779409 -1.8326773 curveto
23.779409 -2.7277048 24.184304 -3.2817709 24.844919 -3.2817709 curveto
fill
grestore
gsave
0 0 0 setrgbcolor
newpath
27.349866 -3.7221817 moveto
27.349866 0 lineto
27.946552 0 lineto
27.946552 -1.9321249 lineto
27.946552 -2.4648793 28.081517 -2.8129467 28.365653 -3.0189451 curveto
28.550341 -3.1539096 28.727926 -3.1965301 29.139923 -3.2036335 curveto
29.139923 -3.8074225 lineto
29.040476 -3.8216293 28.990752 -3.8287327 28.912614 -3.8287327 curveto
28.529031 -3.8287327 28.237791 -3.6014234 27.896828 -3.0473587 curveto
27.896828 -3.7221817 lineto
27.349866 -3.7221817 lineto
fill
grestore
gsave
0 0 0 setrgbcolor
newpath
30.311874 -5.1783788 moveto
29.715188 -5.1783788 lineto
29.715188 0 lineto
30.311874 0 lineto
30.311874 -5.1783788 lineto
fill
grestore
gsave
0 0 0 setrgbcolor
newpath
34.329957 -5.1783788 moveto
33.740375 -5.1783788 lineto
33.740375 -3.2533573 lineto
33.491756 -3.6298371 33.093965 -3.8287327 32.596728 -3.8287327 curveto
31.630666 -3.8287327 30.998463 -3.0544609 30.998463 -1.8681943 curveto
30.998463 -0.61089368 31.616459 0.16337821 32.618038 0.16337821 curveto
33.129482 0.16337821 33.484653 -0.028414063 33.804306 -0.49013462 curveto
33.804306 0 lineto
34.329957 0 lineto
34.329957 -5.1783788 lineto
32.696175 -3.2746675 moveto
33.335481 -3.2746675 33.740375 -2.7063946 33.740375 -1.8184705 curveto
33.740375 -0.95895989 33.328377 -0.39068701 32.703279 -0.39068701 curveto
32.049766 -0.39068701 31.616458 -0.9660633 31.616458 -1.8326773 curveto
31.616458 -2.6992912 32.049766 -3.2746675 32.696175 -3.2746675 curveto
fill
grestore
grestore
grestore
0 0 0 setrgbcolor
[] 0 setdash
0.31504723 setlinewidth
1 setlinejoin
1 setlinecap
newpath
163.14922 121.40988 moveto
163.14922 120.65817 lineto
163.28379 120.35773 lineto
163.41837 119.90647 lineto
163.55294 119.60603 lineto
163.82265 119.3051 lineto
163.95722 119.00454 lineto
164.22636 118.70411 lineto
164.49607 118.55339 lineto
164.76522 118.25284 lineto
165.03492 118.10262 lineto
165.43864 117.80168 lineto
165.84292 117.80168 lineto
166.11206 117.65135 lineto
167.72861 117.65135 lineto
167.99776 117.80168 lineto
168.40204 117.80168 lineto
168.67118 118.10262 lineto
168.94033 118.25284 lineto
169.21004 118.55339 lineto
169.61375 118.70411 lineto
169.74888 119.00454 lineto
170.01803 119.3051 lineto
170.15261 119.60603 lineto
170.42231 119.90647 lineto
170.42231 120.35773 lineto
170.55689 120.65817 lineto
170.69145 120.95923 lineto
170.69145 121.71093 lineto
170.55689 122.16159 lineto
170.42231 122.46264 lineto
170.42231 122.91329 lineto
170.15261 123.21434 lineto
170.01803 123.51478 lineto
169.74888 123.81533 lineto
169.61375 124.11626 lineto
169.21004 124.26648 lineto
168.94033 124.56703 lineto
168.67118 124.71775 lineto
168.40204 124.86796 lineto
167.99776 125.01819 lineto
167.72861 125.01819 lineto
167.32433 125.16841 lineto
166.51634 125.16841 lineto
166.11206 125.01819 lineto
165.84292 125.01819 lineto
165.43864 124.86796 lineto
165.03492 124.71775 lineto
164.76522 124.56703 lineto
164.49607 124.26648 lineto
164.22636 124.11626 lineto
163.95722 123.81533 lineto
163.82265 123.51478 lineto
163.55294 123.21434 lineto
163.41837 122.91329 lineto
163.28379 122.46264 lineto
163.14922 122.16159 lineto
163.14922 121.40988 lineto
stroke
0 0 0 setrgbcolor
[] 0 setdash
0.31504723 setlinewidth
1 setlinejoin
1 setlinecap
newpath
170.69145 121.32452 moveto
179.85093 121.33917 lineto
stroke
gsave
0.50196081 0.50196081 0.50196081 setrgbcolor
newpath
244.02833 121.6518 moveto
244.02833 120.90009 lineto
243.89376 120.59965 lineto
243.75918 120.14839 lineto
243.62461 119.84795 lineto
243.3549 119.54702 lineto
243.22033 119.24646 lineto
242.95119 118.94603 lineto
242.68148 118.79531 lineto
242.41233 118.49476 lineto
242.14263 118.34454 lineto
241.73891 118.0436 lineto
241.33463 118.0436 lineto
241.06549 117.89327 lineto
239.44894 117.89327 lineto
239.17979 118.0436 lineto
238.77551 118.0436 lineto
238.50637 118.34454 lineto
238.23722 118.49476 lineto
237.96751 118.79531 lineto
237.5638 118.94603 lineto
237.42867 119.24646 lineto
237.15952 119.54702 lineto
237.02494 119.84795 lineto
236.75524 120.14839 lineto
236.75524 120.59965 lineto
236.62066 120.90009 lineto
236.4861 121.20115 lineto
236.4861 121.95285 lineto
236.62066 122.40351 lineto
236.75524 122.70456 lineto
236.75524 123.15521 lineto
237.02494 123.45626 lineto
237.15952 123.7567 lineto
237.42867 124.05725 lineto
237.5638 124.35818 lineto
237.96751 124.5084 lineto
238.23722 124.80895 lineto
238.50637 124.95967 lineto
238.77551 125.10988 lineto
239.17979 125.26011 lineto
239.44894 125.26011 lineto
239.85322 125.41033 lineto
240.66121 125.41033 lineto
241.06549 125.26011 lineto
241.33463 125.26011 lineto
241.73891 125.10988 lineto
242.14263 124.95967 lineto
242.41233 124.80895 lineto
242.68148 124.5084 lineto
242.95119 124.35818 lineto
243.22033 124.05725 lineto
243.3549 123.7567 lineto
243.62461 123.45626 lineto
243.75918 123.15521 lineto
243.89376 122.70456 lineto
244.02833 122.40351 lineto
244.02833 121.6518 lineto
eofill
grestore
0 0 0 setrgbcolor
[] 0 setdash
0.31504723 setlinewidth
1 setlinejoin
1 setlinecap
newpath
244.02833 121.6518 moveto
244.02833 120.90009 lineto
243.89376 120.59965 lineto
243.75918 120.14839 lineto
243.62461 119.84795 lineto
243.3549 119.54702 lineto
243.22033 119.24646 lineto
242.95119 118.94603 lineto
242.68148 118.79531 lineto
242.41233 118.49476 lineto
242.14263 118.34454 lineto
241.73891 118.0436 lineto
241.33463 118.0436 lineto
241.06549 117.89327 lineto
239.44894 117.89327 lineto
239.17979 118.0436 lineto
238.77551 118.0436 lineto
238.50637 118.34454 lineto
238.23722 118.49476 lineto
237.96751 118.79531 lineto
237.5638 118.94603 lineto
237.42867 119.24646 lineto
237.15952 119.54702 lineto
237.02494 119.84795 lineto
236.75524 120.14839 lineto
236.75524 120.59965 lineto
236.62066 120.90009 lineto
236.4861 121.20115 lineto
236.4861 121.95285 lineto
236.62066 122.40351 lineto
236.75524 122.70456 lineto
236.75524 123.15521 lineto
237.02494 123.45626 lineto
237.15952 123.7567 lineto
237.42867 124.05725 lineto
237.5638 124.35818 lineto
237.96751 124.5084 lineto
238.23722 124.80895 lineto
238.50637 124.95967 lineto
238.77551 125.10988 lineto
239.17979 125.26011 lineto
239.44894 125.26011 lineto
239.85322 125.41033 lineto
240.66121 125.41033 lineto
241.06549 125.26011 lineto
241.33463 125.26011 lineto
241.73891 125.10988 lineto
242.14263 124.95967 lineto
242.41233 124.80895 lineto
242.68148 124.5084 lineto
242.95119 124.35818 lineto
243.22033 124.05725 lineto
243.3549 123.7567 lineto
243.62461 123.45626 lineto
243.75918 123.15521 lineto
243.89376 122.70456 lineto
244.02833 122.40351 lineto
244.02833 121.6518 lineto
stroke
0 0 0 setrgbcolor
[] 0 setdash
0.31504723 setlinewidth
1 setlinejoin
1 setlinecap
newpath
236.4861 121.6518 moveto
225.87551 121.66645 lineto
stroke
gsave
1 1 1 setrgbcolor
newpath
264.00362 121.98628 moveto
264.00362 121.53667 lineto
263.85374 121.23629 lineto
263.70387 120.93654 lineto
263.55399 120.63629 lineto
263.55399 120.18654 lineto
263.25362 119.88629 lineto
263.10374 119.58642 lineto
262.80399 119.28667 lineto
262.35374 119.13629 lineto
262.05399 118.83642 lineto
261.75362 118.68654 lineto
261.45387 118.53667 lineto
261.00362 118.38629 lineto
260.55399 118.23629 lineto
258.90412 118.23629 lineto
258.45387 118.38629 lineto
258.15412 118.53667 lineto
257.70387 118.68654 lineto
257.40412 118.83642 lineto
257.10374 119.13629 lineto
256.80399 119.28667 lineto
256.50362 119.58642 lineto
256.35375 119.88629 lineto
256.054 120.18654 lineto
255.90412 120.63629 lineto
255.75362 120.93654 lineto
255.60375 121.23629 lineto
255.60375 122.73628 lineto
255.75362 123.18653 lineto
255.90412 123.48628 lineto
256.054 123.78666 lineto
256.35375 124.08641 lineto
256.50362 124.38628 lineto
256.80399 124.68653 lineto
257.10374 124.83641 lineto
257.40412 125.13628 lineto
257.70387 125.28666 lineto
258.15412 125.43653 lineto
258.45387 125.58641 lineto
258.90412 125.73628 lineto
260.55399 125.73628 lineto
261.00362 125.58641 lineto
261.45387 125.43653 lineto
261.75362 125.28666 lineto
262.05399 125.13628 lineto
262.35374 124.83641 lineto
262.80399 124.68653 lineto
263.10374 124.38628 lineto
263.25362 124.08641 lineto
263.55399 123.78666 lineto
263.55399 123.48628 lineto
263.70387 123.18653 lineto
263.85374 122.73628 lineto
264.00362 122.28666 lineto
264.00362 121.98628 lineto
eofill
grestore
0 0 0 setrgbcolor
[] 0 setdash
0.31504723 setlinewidth
1 setlinejoin
1 setlinecap
newpath
256.39415 122.0312 moveto
256.39415 121.27949 lineto
256.52872 120.97905 lineto
256.6633 120.52779 lineto
256.79787 120.22735 lineto
257.06758 119.92642 lineto
257.20215 119.62586 lineto
257.47129 119.32543 lineto
257.741 119.17471 lineto
258.01015 118.87416 lineto
258.27985 118.72394 lineto
258.68357 118.423 lineto
259.08785 118.423 lineto
259.35699 118.27267 lineto
260.97354 118.27267 lineto
261.24269 118.423 lineto
261.64697 118.423 lineto
261.91611 118.72394 lineto
262.18526 118.87416 lineto
262.45497 119.17471 lineto
262.85868 119.32543 lineto
262.99381 119.62586 lineto
263.26296 119.92642 lineto
263.39754 120.22735 lineto
263.66724 120.52779 lineto
263.66724 120.97905 lineto
263.80182 121.27949 lineto
263.93638 121.58055 lineto
263.93638 122.33225 lineto
263.80182 122.78291 lineto
263.66724 123.08396 lineto
263.66724 123.53461 lineto
263.39754 123.83566 lineto
263.26296 124.1361 lineto
262.99381 124.43665 lineto
262.85868 124.73758 lineto
262.45497 124.8878 lineto
262.18526 125.18835 lineto
261.91611 125.33907 lineto
261.64697 125.48928 lineto
261.24269 125.63951 lineto
260.97354 125.63951 lineto
260.56926 125.78973 lineto
259.76127 125.78973 lineto
259.35699 125.63951 lineto
259.08785 125.63951 lineto
258.68357 125.48928 lineto
258.27985 125.33907 lineto
258.01015 125.18835 lineto
257.741 124.8878 lineto
257.47129 124.73758 lineto
257.20215 124.43665 lineto
257.06758 124.1361 lineto
256.79787 123.83566 lineto
256.6633 123.53461 lineto
256.52872 123.08396 lineto
256.39415 122.78291 lineto
256.39415 122.0312 lineto
stroke
0 0 0 setrgbcolor
[] 0 setdash
0.31504723 setlinewidth
1 setlinejoin
1 setlinecap
newpath
263.80834 121.90316 moveto
266.7366 121.83245 lineto
stroke
gsave [1 0 0 1 73.208947 90.494998] concat
0 0 0 setrgbcolor
[] 0 setdash
0.40000001 setlinewidth
0 setlinejoin
0 setlinecap
newpath
77.518665 30.644604 moveto
89.576281 30.644604 lineto
stroke
gsave [-0.44000001 0 0 -0.44000001 89.136281 30.644604] concat
gsave
0 0 0 setrgbcolor
newpath
8.7185878 4.0337352 moveto
-2.2072895 0.016013256 lineto
8.7185884 -4.0017078 lineto
6.97309 -1.6296469 6.9831476 1.6157441 8.7185878 4.0337352 curveto
closepath
eofill
grestore
grestore
grestore
0 0 0 setrgbcolor
[] 0 setdash
0.40000001 setlinewidth
0 setlinejoin
0 setlinecap
newpath
243.87144 121.74408 moveto
255.92905 121.74408 lineto
stroke
gsave [-0.44000001 0 0 -0.44000001 255.48905 121.74408] concat
gsave
0 0 0 setrgbcolor
newpath
8.7185878 4.0337352 moveto
-2.2072895 0.016013256 lineto
8.7185884 -4.0017078 lineto
6.97309 -1.6296469 6.9831476 1.6157441 8.7185878 4.0337352 curveto
closepath
eofill
grestore
grestore
grestore
grestore
showpage
%%EOF
