<?xml version="1.0" encoding="UTF-8" standalone="no"?>
<!-- Created with Inkscape (http://www.inkscape.org/) -->
<svg
   xmlns:dc="http://purl.org/dc/elements/1.1/"
   xmlns:cc="http://creativecommons.org/ns#"
   xmlns:rdf="http://www.w3.org/1999/02/22-rdf-syntax-ns#"
   xmlns:svg="http://www.w3.org/2000/svg"
   xmlns="http://www.w3.org/2000/svg"
   xmlns:sodipodi="http://sodipodi.sourceforge.net/DTD/sodipodi-0.dtd"
   xmlns:inkscape="http://www.inkscape.org/namespaces/inkscape"
   width="210mm"
   height="297mm"
   id="svg2998"
   sodipodi:version="0.32"
   inkscape:version="0.46"
   sodipodi:docname="sleepModeTable.svg"
   inkscape:output_extension="org.inkscape.output.svg.inkscape"
   inkscape:export-filename="/home/asieber/Desktop/sleepModeTable.png"
   inkscape:export-xdpi="90"
   inkscape:export-ydpi="90">
  <defs
     id="defs3">
    <marker
       inkscape:stockid="Tail"
       orient="auto"
       refY="0.0"
       refX="0.0"
       id="Tail"
       style="overflow:visible">
      <g
         id="g3971"
         transform="scale(-1.2)">
        <path
           id="path3973"
           d="M -3.8048674,-3.9585227 L 0.54352094,0"
           style="fill:none;fill-rule:evenodd;stroke:#000000;stroke-width:0.8;marker-start:none;marker-end:none;stroke-linecap:round" />
        <path
           id="path3975"
           d="M -1.2866832,-3.9585227 L 3.0617053,0"
           style="fill:none;fill-rule:evenodd;stroke:#000000;stroke-width:0.8;marker-start:none;marker-end:none;stroke-linecap:round" />
        <path
           id="path3977"
           d="M 1.3053582,-3.9585227 L 5.6537466,0"
           style="fill:none;fill-rule:evenodd;stroke:#000000;stroke-width:0.8;marker-start:none;marker-end:none;stroke-linecap:round" />
        <path
           id="path3979"
           d="M -3.8048674,4.1775838 L 0.54352094,0.21974226"
           style="fill:none;fill-rule:evenodd;stroke:#000000;stroke-width:0.8;marker-start:none;marker-end:none;stroke-linecap:round" />
        <path
           id="path3981"
           d="M -1.2866832,4.1775838 L 3.0617053,0.21974226"
           style="fill:none;fill-rule:evenodd;stroke:#000000;stroke-width:0.8;marker-start:none;marker-end:none;stroke-linecap:round" />
        <path
           id="path3983"
           d="M 1.3053582,4.1775838 L 5.6537466,0.21974226"
           style="fill:none;fill-rule:evenodd;stroke:#000000;stroke-width:0.8;marker-start:none;marker-end:none;stroke-linecap:round" />
      </g>
    </marker>
    <marker
       inkscape:stockid="Arrow2Mstart"
       orient="auto"
       refY="0.0"
       refX="0.0"
       id="Arrow2Mstart"
       style="overflow:visible">
      <path
         id="path3959"
         style="font-size:12.0;fill-rule:evenodd;stroke-width:0.62500000;stroke-linejoin:round"
         d="M 8.7185878,4.0337352 L -2.2072895,0.016013256 L 8.7185884,-4.0017078 C 6.9730900,-1.6296469 6.9831476,1.6157441 8.7185878,4.0337352 z "
         transform="scale(0.6) translate(0,0)" />
    </marker>
    <marker
       inkscape:stockid="Arrow2Lend"
       orient="auto"
       refY="0.0"
       refX="0.0"
       id="Arrow2Lend"
       style="overflow:visible;">
      <path
         id="path3956"
         style="font-size:12.0;fill-rule:evenodd;stroke-width:0.62500000;stroke-linejoin:round;"
         d="M 8.7185878,4.0337352 L -2.2072895,0.016013256 L 8.7185884,-4.0017078 C 6.9730900,-1.6296469 6.9831476,1.6157441 8.7185878,4.0337352 z "
         transform="scale(1.1) rotate(180) translate(1,0)" />
    </marker>
    <marker
       inkscape:stockid="Arrow2Mend"
       orient="auto"
       refY="0.0"
       refX="0.0"
       id="Arrow2Mend"
       style="overflow:visible;">
      <path
         id="path3962"
         style="font-size:12.0;fill-rule:evenodd;stroke-width:0.62500000;stroke-linejoin:round;"
         d="M 8.7185878,4.0337352 L -2.2072895,0.016013256 L 8.7185884,-4.0017078 C 6.9730900,-1.6296469 6.9831476,1.6157441 8.7185878,4.0337352 z "
         transform="scale(0.6) rotate(180) translate(0,0)" />
    </marker>
    <marker
       inkscape:stockid="TriangleOutL"
       orient="auto"
       refY="0.0"
       refX="0.0"
       id="TriangleOutL"
       style="overflow:visible">
      <path
         id="path4078"
         d="M 5.77,0.0 L -2.88,5.0 L -2.88,-5.0 L 5.77,0.0 z "
         style="fill-rule:evenodd;stroke:#000000;stroke-width:1.0pt;marker-start:none"
         transform="scale(0.8)" />
    </marker>
    <inkscape:perspective
       sodipodi:type="inkscape:persp3d"
       inkscape:vp_x="0 : 526.18109 : 1"
       inkscape:vp_y="0 : 1000 : 0"
       inkscape:vp_z="744.09448 : 526.18109 : 1"
       inkscape:persp3d-origin="372.04724 : 350.78739 : 1"
       id="perspective3004" />
  </defs>
  <sodipodi:namedview
     inkscape:document-units="mm"
     id="base"
     pagecolor="#ffffff"
     bordercolor="#666666"
     borderopacity="1.0"
     inkscape:pageopacity="0.0"
     inkscape:pageshadow="2"
     inkscape:zoom="0.98994949"
     inkscape:cx="419.69799"
     inkscape:cy="779.64692"
     inkscape:current-layer="layer1"
     showgrid="true"
     showguides="true"
     inkscape:guide-bbox="true"
     inkscape:window-width="1440"
     inkscape:window-height="825"
     inkscape:window-x="0"
     inkscape:window-y="26">
    <inkscape:grid
       type="xygrid"
       id="grid3824"
       visible="true"
       enabled="true" />
    <sodipodi:guide
       orientation="1,0"
       position="619.82143,990.35714"
       id="guide3834" />
  </sodipodi:namedview>
  <metadata
     id="metadata4">
    <rdf:RDF>
      <cc:Work
         rdf:about="">
        <dc:format>image/svg+xml</dc:format>
        <dc:type
           rdf:resource="http://purl.org/dc/dcmitype/StillImage" />
      </cc:Work>
    </rdf:RDF>
  </metadata>
  <g
     inkscape:label="Layer 1"
     inkscape:groupmode="layer"
     id="layer1">
    <rect
       style="opacity:1;fill:#e6e6e6;fill-opacity:0.99653979;stroke:#000000;stroke-width:2.72236466;stroke-miterlimit:10;stroke-dasharray:none;stroke-dashoffset:0;stroke-opacity:1"
       id="rect3008"
       width="328.21375"
       height="154.27136"
       x="18.121595"
       y="175.62276" />
    <text
       xml:space="preserve"
       style="font-size:23.47167206px;font-style:normal;font-weight:normal;fill:#000000;fill-opacity:1;stroke:none;stroke-width:1px;stroke-linecap:butt;stroke-linejoin:miter;stroke-opacity:1;font-family:Bitstream Vera Sans"
       x="64.52681"
       y="168.71132"
       id="text3780"
       transform="scale(0.8279155,1.2078528)"><tspan
         sodipodi:role="line"
         id="tspan3782"
         x="64.52681"
         y="168.71132">EnergyManageAbleObject</tspan></text>
    <text
       xml:space="preserve"
       style="font-size:20px;font-style:normal;font-weight:normal;fill:#000000;fill-opacity:1;stroke:none;stroke-width:1px;stroke-linecap:butt;stroke-linejoin:miter;stroke-opacity:1;font-family:Bitstream Vera Sans"
       x="25.899916"
       y="235.97978"
       id="text3796"><tspan
         sodipodi:role="line"
         id="tspan3798"
         x="25.899916"
         y="235.97978">+ enable()</tspan><tspan
         sodipodi:role="line"
         x="25.899916"
         y="260.9798"
         id="tspan3800">+ disable()</tspan></text>
    <text
       xml:space="preserve"
       style="font-size:20px;font-style:normal;font-weight:normal;fill:#000000;fill-opacity:1;stroke:none;stroke-width:1px;stroke-linecap:butt;stroke-linejoin:miter;stroke-opacity:1;font-family:Bitstream Vera Sans"
       x="24.287519"
       y="315.2793"
       id="text3802"><tspan
         sodipodi:role="line"
         id="tspan3804"
         x="24.287519"
         y="315.2793">deepestAllowedSleepMode</tspan></text>
    <path
       style="fill:none;fill-rule:evenodd;stroke:#000000;stroke-width:2.33404708px;stroke-linecap:butt;stroke-linejoin:miter;stroke-opacity:1"
       d="M 18.240616,210.77323 C 345.20628,210.77323 345.23831,210.66948 345.23831,210.66948 L 345.23831,210.66948 L 345.23831,210.66948 L 345.23831,210.66948"
       id="path3806" />
    <path
       style="fill:none;fill-rule:evenodd;stroke:#000000;stroke-width:2.33404708px;stroke-linecap:butt;stroke-linejoin:miter;stroke-opacity:1"
       d="M 17.406486,290.04459 C 344.37214,290.04459 344.40417,289.94084 344.40417,289.94084 L 344.40417,289.94084 L 344.40417,289.94084 L 344.40417,289.94084"
       id="path3810" />
    <text
       xml:space="preserve"
       style="font-size:16.31957436px;font-style:normal;font-weight:normal;fill:#000000;fill-opacity:1;stroke:none;stroke-width:1px;stroke-linecap:butt;stroke-linejoin:miter;stroke-opacity:1;font-family:Bitstream Vera Sans"
       x="409.53369"
       y="80.983284"
       id="text3814"
       transform="scale(1.0006088,0.9993915)"><tspan
         sodipodi:role="line"
         id="tspan3816"
         x="409.53369"
         y="80.983284">sleepModeTable</tspan></text>
    <rect
       style="opacity:1;fill:#e6e6e6;fill-opacity:0.99653979;stroke:#000000;stroke-width:1.43754983;stroke-miterlimit:10;stroke-dasharray:none;stroke-dashoffset:0;stroke-opacity:1"
       id="rect3818"
       width="93.736847"
       height="150.6208"
       x="426.14407"
       y="92.157631" />
    <path
       style="fill:none;fill-rule:evenodd;stroke:#000000;stroke-width:1.66051483px;stroke-linecap:butt;stroke-linejoin:miter;stroke-opacity:1"
       d="M 426.86771,124.13046 C 519.56386,124.13046 519.57294,123.94524 519.57294,123.94524 L 519.57294,123.94524 L 519.57294,123.94524 L 519.57294,123.94524"
       id="path3820" />
    <path
       style="fill:none;fill-rule:evenodd;stroke:#000000;stroke-width:1.66051483px;stroke-linecap:butt;stroke-linejoin:miter;stroke-opacity:1"
       d="M 426.6745,153.88746 C 519.37065,153.88746 519.37973,153.70224 519.37973,153.70224 L 519.37973,153.70224 L 519.37973,153.70224 L 519.37973,153.70224"
       id="path3822" />
    <path
       style="fill:none;fill-rule:evenodd;stroke:#000000;stroke-width:1.66051483px;stroke-linecap:butt;stroke-linejoin:miter;stroke-opacity:1"
       d="M 426.6745,182.21039 C 519.37064,182.21039 519.37973,182.02517 519.37973,182.02517 L 519.37973,182.02517 L 519.37973,182.02517 L 519.37973,182.02517"
       id="path3826" />
    <path
       style="fill:none;fill-rule:evenodd;stroke:#000000;stroke-width:1.66051483px;stroke-linecap:butt;stroke-linejoin:miter;stroke-opacity:1"
       d="M 426.09487,212.95034 C 518.79102,212.95034 518.8001,212.76512 518.8001,212.76512 L 518.8001,212.76512 L 518.8001,212.76512 L 518.8001,212.76512"
       id="path3828" />
    <text
       xml:space="preserve"
       style="font-size:20px;font-style:normal;font-weight:normal;fill:#000000;fill-opacity:1;stroke:none;stroke-width:1px;stroke-linecap:butt;stroke-linejoin:miter;stroke-opacity:1;font-family:Bitstream Vera Sans"
       x="467.47678"
       y="234.56415"
       id="text3852"><tspan
         sodipodi:role="line"
         id="tspan3854"
         x="467.47678"
         y="234.56415">1</tspan></text>
    <text
       xml:space="preserve"
       style="font-size:20px;font-style:normal;font-weight:normal;fill:#000000;fill-opacity:1;stroke:none;stroke-width:1px;stroke-linecap:butt;stroke-linejoin:miter;stroke-opacity:1;font-family:Bitstream Vera Sans"
       x="467.47678"
       y="115.45701"
       id="text3856"><tspan
         sodipodi:role="line"
         id="tspan3858"
         x="467.47678"
         y="115.45701">0</tspan></text>
    <text
       xml:space="preserve"
       style="font-size:20px;font-style:normal;font-weight:normal;fill:#000000;fill-opacity:1;stroke:none;stroke-width:1px;stroke-linecap:butt;stroke-linejoin:miter;stroke-opacity:1;font-family:Bitstream Vera Sans"
       x="467.29813"
       y="205.27846"
       id="text3860"><tspan
         sodipodi:role="line"
         id="tspan3862"
         x="467.29813"
         y="205.27846">0</tspan></text>
    <text
       xml:space="preserve"
       style="font-size:20px;font-style:normal;font-weight:normal;fill:#000000;fill-opacity:1;stroke:none;stroke-width:1px;stroke-linecap:butt;stroke-linejoin:miter;stroke-opacity:1;font-family:Bitstream Vera Sans"
       x="452.09116"
       y="176.11003"
       id="text3864"><tspan
         sodipodi:role="line"
         id="tspan3866"
         x="452.09116"
         y="176.11003">0</tspan></text>
    <text
       xml:space="preserve"
       style="font-size:20px;font-style:normal;font-weight:normal;fill:#000000;fill-opacity:1;stroke:none;stroke-width:1px;stroke-linecap:butt;stroke-linejoin:miter;stroke-opacity:1;font-family:Bitstream Vera Sans"
       x="467.47678"
       y="145.45702"
       id="text3868"><tspan
         sodipodi:role="line"
         id="tspan3870"
         x="467.47678"
         y="145.45702">0</tspan></text>
    <rect
       style="opacity:1;fill:#e6e6e6;fill-opacity:0.99653979;stroke:#000000;stroke-width:1.43754983;stroke-miterlimit:10;stroke-dasharray:none;stroke-dashoffset:0;stroke-opacity:1"
       id="rect3896"
       width="93.736847"
       height="150.6208"
       x="425.8826"
       y="274.65762" />
    <path
       style="fill:none;fill-rule:evenodd;stroke:#000000;stroke-width:1.66051483px;stroke-linecap:butt;stroke-linejoin:miter;stroke-opacity:1"
       d="M 426.6062,306.63044 C 519.30235,306.63044 519.31143,306.44522 519.31143,306.44522 L 519.31143,306.44522 L 519.31143,306.44522 L 519.31143,306.44522"
       id="path3898" />
    <path
       style="fill:none;fill-rule:evenodd;stroke:#000000;stroke-width:1.66051483px;stroke-linecap:butt;stroke-linejoin:miter;stroke-opacity:1"
       d="M 426.41299,336.38745 C 519.10914,336.38745 519.11822,336.20223 519.11822,336.20223 L 519.11822,336.20223 L 519.11822,336.20223 L 519.11822,336.20223"
       id="path3900" />
    <path
       style="fill:none;fill-rule:evenodd;stroke:#000000;stroke-width:1.66051483px;stroke-linecap:butt;stroke-linejoin:miter;stroke-opacity:1"
       d="M 426.41299,364.71038 C 519.10913,364.71038 519.11822,364.52516 519.11822,364.52516 L 519.11822,364.52516 L 519.11822,364.52516 L 519.11822,364.52516"
       id="path3902" />
    <path
       style="fill:none;fill-rule:evenodd;stroke:#000000;stroke-width:1.66051483px;stroke-linecap:butt;stroke-linejoin:miter;stroke-opacity:1"
       d="M 425.83336,395.45033 C 518.52951,395.45033 518.53859,395.26511 518.53859,395.26511 L 518.53859,395.26511 L 518.53859,395.26511 L 518.53859,395.26511"
       id="path3904" />
    <text
       xml:space="preserve"
       style="font-size:20px;font-style:normal;font-weight:normal;fill:#000000;fill-opacity:1;stroke:none;stroke-width:1px;stroke-linecap:butt;stroke-linejoin:miter;stroke-opacity:1;font-family:Bitstream Vera Sans"
       x="467.2153"
       y="417.06415"
       id="text3906"><tspan
         sodipodi:role="line"
         id="tspan3908"
         x="467.2153"
         y="417.06415">1</tspan></text>
    <text
       xml:space="preserve"
       style="font-size:20px;font-style:normal;font-weight:normal;fill:#000000;fill-opacity:1;stroke:none;stroke-width:1px;stroke-linecap:butt;stroke-linejoin:miter;stroke-opacity:1;font-family:Bitstream Vera Sans"
       x="467.2153"
       y="297.957"
       id="text3910"><tspan
         sodipodi:role="line"
         id="tspan3912"
         x="467.2153"
         y="297.957">0</tspan></text>
    <text
       xml:space="preserve"
       style="font-size:20px;font-style:normal;font-weight:normal;fill:#000000;fill-opacity:1;stroke:none;stroke-width:1px;stroke-linecap:butt;stroke-linejoin:miter;stroke-opacity:1;font-family:Bitstream Vera Sans"
       x="467.03665"
       y="387.77844"
       id="text3914"><tspan
         sodipodi:role="line"
         id="tspan3916"
         x="467.03665"
         y="387.77844">0</tspan></text>
    <text
       xml:space="preserve"
       style="font-size:20px;font-style:normal;font-weight:normal;fill:#000000;fill-opacity:1;stroke:none;stroke-width:1px;stroke-linecap:butt;stroke-linejoin:miter;stroke-opacity:1;font-family:Bitstream Vera Sans"
       x="467.2153"
       y="327.957"
       id="text3922"><tspan
         sodipodi:role="line"
         id="tspan3924"
         x="467.2153"
         y="327.957">0</tspan></text>
    <path
       style="fill:none;fill-rule:evenodd;stroke:#000000;stroke-width:2.06220484;stroke-linecap:butt;stroke-linejoin:miter;marker-end:url(#TriangleOutL);stroke-miterlimit:4;stroke-dasharray:8.2488189, 2.06220472;stroke-dashoffset:0;stroke-opacity:1"
       d="M 135.86552,231.10816 C 390.92904,231.10816 390.92904,230.60308 390.92904,230.60308 L 390.54819,168.98378 L 415.1727,168.98378"
       id="path3930"
       sodipodi:nodetypes="cccc" />
    <path
       style="fill:none;fill-rule:evenodd;stroke:#000000;stroke-width:2.06220484;stroke-linecap:butt;stroke-linejoin:miter;marker-end:url(#TriangleOutL);stroke-miterlimit:4;stroke-dasharray:8.2488189, 2.06220472;stroke-dashoffset:0;stroke-opacity:1"
       d="M 138.24101,255.01548 C 393.30453,255.01548 391.30453,255.52056 391.30453,255.52056 L 390.92368,349.13986 L 415.54819,349.13986"
       id="path4710"
       sodipodi:nodetypes="cccc" />
    <text
       xml:space="preserve"
       style="font-size:20px;font-style:normal;font-weight:normal;fill:#000000;fill-opacity:1;stroke:none;stroke-width:1px;stroke-linecap:butt;stroke-linejoin:miter;stroke-opacity:1;font-family:Bitstream Vera Sans"
       x="377.79709"
       y="164.4381"
       id="text4712"><tspan
         sodipodi:role="line"
         id="tspan4714"
         x="377.79709"
         y="164.4381">inc</tspan></text>
    <text
       xml:space="preserve"
       style="font-size:20px;font-style:normal;font-weight:normal;fill:#000000;fill-opacity:1;stroke:none;stroke-width:1px;stroke-linecap:butt;stroke-linejoin:miter;stroke-opacity:1;font-family:Bitstream Vera Sans"
       x="372.74625"
       y="363.47876"
       id="text4716"><tspan
         sodipodi:role="line"
         id="tspan4718"
         x="372.74625"
         y="363.47876">dec</tspan></text>
    <path
       style="fill:none;fill-rule:evenodd;stroke:#000000;stroke-width:1.70787406;stroke-linecap:butt;stroke-linejoin:miter;marker-end:url(#Arrow2Mend);stroke-miterlimit:4;stroke-dasharray:none;stroke-opacity:1"
       d="M 465.42779,168.77843 L 485.37831,168.77843 L 485.37831,168.77843 L 485.37831,168.77843"
       id="path5243" />
    <text
       xml:space="preserve"
       style="font-size:20px;font-style:normal;font-weight:normal;fill:#000000;fill-opacity:1;stroke:none;stroke-width:1px;stroke-linecap:butt;stroke-linejoin:miter;stroke-opacity:1;font-family:Bitstream Vera Sans"
       x="483.89102"
       y="176.02129"
       id="text6283"><tspan
         sodipodi:role="line"
         id="tspan6285"
         x="483.89102"
         y="176.02129">1</tspan></text>
    <text
       xml:space="preserve"
       style="font-size:20px;font-style:normal;font-weight:normal;fill:#000000;fill-opacity:1;stroke:none;stroke-width:1px;stroke-linecap:butt;stroke-linejoin:miter;stroke-opacity:1;font-family:Bitstream Vera Sans"
       x="487.11832"
       y="356.70258"
       id="text6287"><tspan
         sodipodi:role="line"
         id="tspan6289"
         x="487.11832"
         y="356.70258">0</tspan></text>
    <path
       style="fill:none;fill-rule:evenodd;stroke:#000000;stroke-width:1.70787406;stroke-linecap:butt;stroke-linejoin:miter;marker-end:url(#Arrow2Mend);stroke-miterlimit:4;stroke-dasharray:none;stroke-opacity:1"
       d="M 465.35215,349.24468 L 485.30267,349.24468 L 485.30267,349.24468 L 485.30267,349.24468"
       id="path6291" />
    <text
       xml:space="preserve"
       style="font-size:20px;font-style:normal;font-weight:normal;fill:#000000;fill-opacity:1;stroke:none;stroke-width:1px;stroke-linecap:butt;stroke-linejoin:miter;stroke-opacity:1;font-family:Bitstream Vera Sans"
       x="454.66428"
       y="356.48755"
       id="text6293"><tspan
         sodipodi:role="line"
         id="tspan6295"
         x="454.66428"
         y="356.48755">1</tspan></text>
    <g
       id="g14424"
       transform="translate(-144.45181,41.416254)">
      <g
         id="g14428"
         transform="translate(0.1262691,-11.237947)">
        <path
           sodipodi:type="arc"
           style="opacity:1;fill:none;fill-opacity:0.99653979;stroke:#000000;stroke-width:1.70787406;marker-mid:none;marker-end:none;stroke-miterlimit:4;stroke-dasharray:none;stroke-dashoffset:0;stroke-opacity:1"
           id="path11074"
           sodipodi:cx="706.47546"
           sodipodi:cy="89.497398"
           sodipodi:rx="11.995562"
           sodipodi:ry="21.528875"
           d="M 699.89792,71.493641 A 11.995562,21.528875 0 1 1 699.69414,107.25597"
           sodipodi:start="4.132021"
           sodipodi:end="8.4548021"
           transform="matrix(1.4038884,0,0,0.6050604,-317.89433,33.847756)"
           sodipodi:open="true" />
        <path
           style="fill:#000000;fill-opacity:1;fill-rule:evenodd;stroke:#000000;stroke-width:1px;stroke-linecap:butt;stroke-linejoin:miter;stroke-opacity:1"
           d="M 664.55411,98.399371 L 673.39294,97.515487 L 670.48875,105.72298 L 664.55411,98.399371 z"
           id="path14420"
           sodipodi:nodetypes="cccc" />
      </g>
      <g
         id="g14432"
         transform="translate(-0.2710629,22.715824)">
        <path
           sodipodi:type="arc"
           style="opacity:1;fill:none;fill-opacity:0.99653979;stroke:#000000;stroke-width:1.70787406;marker-mid:none;marker-end:none;stroke-miterlimit:4;stroke-dasharray:none;stroke-dashoffset:0;stroke-opacity:1"
           id="path14434"
           sodipodi:cx="706.47546"
           sodipodi:cy="89.497398"
           sodipodi:rx="11.995562"
           sodipodi:ry="21.528875"
           d="M 699.89792,71.493641 A 11.995562,21.528875 0 1 1 699.69414,107.25597"
           sodipodi:start="4.132021"
           sodipodi:end="8.4548021"
           transform="matrix(1.4038884,0,0,0.6050604,-317.89433,33.847756)"
           sodipodi:open="true" />
        <path
           style="fill:#000000;fill-opacity:1;fill-rule:evenodd;stroke:#000000;stroke-width:1px;stroke-linecap:butt;stroke-linejoin:miter;stroke-opacity:1"
           d="M 664.55411,98.399371 L 673.39294,97.515487 L 670.48875,105.72298 L 664.55411,98.399371 z"
           id="path14436"
           sodipodi:nodetypes="cccc" />
      </g>
      <g
         id="g14438"
         transform="translate(0.1077443,172.59721)">
        <path
           sodipodi:type="arc"
           style="opacity:1;fill:none;fill-opacity:0.99653979;stroke:#000000;stroke-width:1.70787406;marker-mid:none;marker-end:none;stroke-miterlimit:4;stroke-dasharray:none;stroke-dashoffset:0;stroke-opacity:1"
           id="path14440"
           sodipodi:cx="706.47546"
           sodipodi:cy="89.497398"
           sodipodi:rx="11.995562"
           sodipodi:ry="21.528875"
           d="M 699.89792,71.493641 A 11.995562,21.528875 0 1 1 699.69414,107.25597"
           sodipodi:start="4.132021"
           sodipodi:end="8.4548021"
           transform="matrix(1.4038884,0,0,0.6050604,-317.89433,33.847756)"
           sodipodi:open="true" />
        <path
           style="fill:#000000;fill-opacity:1;fill-rule:evenodd;stroke:#000000;stroke-width:1px;stroke-linecap:butt;stroke-linejoin:miter;stroke-opacity:1"
           d="M 664.55411,98.399371 L 673.39294,97.515487 L 670.48875,105.72298 L 664.55411,98.399371 z"
           id="path14442"
           sodipodi:nodetypes="cccc" />
      </g>
      <g
         id="g14444"
         transform="translate(0.1077444,207.19505)">
        <path
           sodipodi:type="arc"
           style="opacity:1;fill:none;fill-opacity:0.99653979;stroke:#000000;stroke-width:1.70787406;marker-mid:none;marker-end:none;stroke-miterlimit:4;stroke-dasharray:none;stroke-dashoffset:0;stroke-opacity:1"
           id="path14446"
           sodipodi:cx="706.47546"
           sodipodi:cy="89.497398"
           sodipodi:rx="11.995562"
           sodipodi:ry="21.528875"
           d="M 699.89792,71.493641 A 11.995562,21.528875 0 1 1 699.69414,107.25597"
           sodipodi:start="4.132021"
           sodipodi:end="8.4548021"
           transform="matrix(1.4038884,0,0,0.6050604,-317.89433,33.847756)"
           sodipodi:open="true" />
        <path
           style="fill:#000000;fill-opacity:1;fill-rule:evenodd;stroke:#000000;stroke-width:1px;stroke-linecap:butt;stroke-linejoin:miter;stroke-opacity:1"
           d="M 664.55411,98.399371 L 673.39294,97.515487 L 670.48875,105.72298 L 664.55411,98.399371 z"
           id="path14448"
           sodipodi:nodetypes="cccc" />
      </g>
      <g
         id="g14450"
         transform="translate(-0.2710628,240.52997)">
        <path
           sodipodi:type="arc"
           style="opacity:1;fill:none;fill-opacity:0.99653979;stroke:#000000;stroke-width:1.70787406;marker-mid:none;marker-end:none;stroke-miterlimit:4;stroke-dasharray:none;stroke-dashoffset:0;stroke-opacity:1"
           id="path14452"
           sodipodi:cx="706.47546"
           sodipodi:cy="89.497398"
           sodipodi:rx="11.995562"
           sodipodi:ry="21.528875"
           d="M 699.89792,71.493641 A 11.995562,21.528875 0 1 1 699.69414,107.25597"
           sodipodi:start="4.132021"
           sodipodi:end="8.4548021"
           transform="matrix(1.4038884,0,0,0.6050604,-317.89433,33.847756)"
           sodipodi:open="true" />
        <path
           style="fill:#000000;fill-opacity:1;fill-rule:evenodd;stroke:#000000;stroke-width:1px;stroke-linecap:butt;stroke-linejoin:miter;stroke-opacity:1"
           d="M 664.55411,98.399371 L 673.39294,97.515487 L 670.48875,105.72298 L 664.55411,98.399371 z"
           id="path14454"
           sodipodi:nodetypes="cccc" />
      </g>
      <g
         id="g14456"
         transform="translate(-0.1447938,273.73874)">
        <path
           sodipodi:type="arc"
           style="opacity:1;fill:none;fill-opacity:0.99653979;stroke:#000000;stroke-width:1.70787406;marker-mid:none;marker-end:none;stroke-miterlimit:4;stroke-dasharray:none;stroke-dashoffset:0;stroke-opacity:1"
           id="path14458"
           sodipodi:cx="706.47546"
           sodipodi:cy="89.497398"
           sodipodi:rx="11.995562"
           sodipodi:ry="21.528875"
           d="M 699.89792,71.493641 A 11.995562,21.528875 0 1 1 699.69414,107.25597"
           sodipodi:start="4.132021"
           sodipodi:end="8.4548021"
           transform="matrix(1.4038884,0,0,0.6050604,-317.89433,33.847756)"
           sodipodi:open="true" />
        <path
           style="fill:#000000;fill-opacity:1;fill-rule:evenodd;stroke:#000000;stroke-width:1px;stroke-linecap:butt;stroke-linejoin:miter;stroke-opacity:1"
           d="M 664.55411,98.399371 L 673.39294,97.515487 L 670.48875,105.72298 L 664.55411,98.399371 z"
           id="path14460"
           sodipodi:nodetypes="cccc" />
      </g>
      <path
         style="fill:none;fill-rule:evenodd;stroke:#000000;stroke-width:1.70787406;stroke-linecap:butt;stroke-linejoin:miter;marker-end:url(#Arrow2Lend);stroke-miterlimit:4;stroke-dasharray:none;stroke-opacity:1"
         d="M 663.92276,382.36218 C 712.53635,382.25224 712.53635,382.25224 712.53635,382.25224"
         id="path14462" />
    </g>
    <path
       style="fill:none;fill-rule:evenodd;stroke:#000000;stroke-width:1.70787406;stroke-linecap:butt;stroke-linejoin:miter;marker-end:url(#Arrow2Lend);stroke-miterlimit:4;stroke-dasharray:none;stroke-opacity:1"
       d="M 520.08974,174.38581 C 568.70333,174.27587 568.70333,174.27587 568.70333,174.27587"
       id="path15029" />
    <path
       style="fill:none;fill-rule:evenodd;stroke:#000000;stroke-width:1.70787406;stroke-linecap:butt;stroke-linejoin:miter;marker-end:url(#Arrow2Lend);stroke-miterlimit:4;stroke-dasharray:none;stroke-opacity:1"
       d="M 536.21406,95.341379 C 584.82765,95.231439 522.38538,95.231439 522.38538,95.231439"
       id="path15942"
       sodipodi:nodetypes="cc" />
    <text
       xml:space="preserve"
       style="font-size:14.50600243px;font-style:normal;font-weight:normal;fill:#000000;fill-opacity:1;stroke:none;stroke-width:1px;stroke-linecap:butt;stroke-linejoin:miter;stroke-opacity:1;font-family:Bitstream Vera Sans"
       x="612.74084"
       y="89.403999"
       id="text15946"
       transform="scale(0.8999039,1.1112298)"><tspan
         sodipodi:role="line"
         id="tspan15948"
         x="612.74084"
         y="89.403999">powerDown()</tspan></text>
    <text
       xml:space="preserve"
       style="font-size:16.31957436px;font-style:normal;font-weight:normal;fill:#000000;fill-opacity:1;stroke:none;stroke-width:1px;stroke-linecap:butt;stroke-linejoin:miter;stroke-opacity:1;font-family:Bitstream Vera Sans"
       x="574.17828"
       y="179.14014"
       id="text15954"
       transform="scale(1.0006088,0.9993915)"><tspan
         sodipodi:role="line"
         id="tspan15956"
         x="574.17828"
         y="179.14014">lpm2</tspan></text>
    <text
       xml:space="preserve"
       style="font-size:16.31957436px;font-style:normal;font-weight:normal;fill:#000000;fill-opacity:1;stroke:none;stroke-width:1px;stroke-linecap:butt;stroke-linejoin:miter;stroke-opacity:1;font-family:Bitstream Vera Sans"
       x="571.05023"
       y="427.79691"
       id="text15958"
       transform="scale(1.0006088,0.9993915)"><tspan
         sodipodi:role="line"
         id="tspan15960"
         x="571.05023"
         y="427.79691">lpm4</tspan></text>
    <path
       style="fill:none;fill-rule:evenodd;stroke:#000000;stroke-width:1.70787406;stroke-linecap:butt;stroke-linejoin:miter;marker-end:url(#Arrow2Lend);stroke-miterlimit:4;stroke-dasharray:none;stroke-opacity:1"
       d="M 536.01325,279.17026 C 584.62684,279.06032 522.18457,279.06032 522.18457,279.06032"
       id="path15962"
       sodipodi:nodetypes="cc" />
    <text
       xml:space="preserve"
       style="font-size:14.50600243px;font-style:normal;font-weight:normal;fill:#000000;fill-opacity:1;stroke:none;stroke-width:1px;stroke-linecap:butt;stroke-linejoin:miter;stroke-opacity:1;font-family:Bitstream Vera Sans"
       x="610.23639"
       y="255.60388"
       id="text15968"
       transform="scale(0.8999039,1.1112298)"><tspan
         sodipodi:role="line"
         id="tspan15970"
         x="610.23639"
         y="255.60388">powerDown()</tspan></text>
  </g>
</svg>
